Exp2/dados/RL/r.csv

Record Length,2500,Points,-24.99999851E-3,-30.00000000,,Record Length,2500,Points,-24.99999851E-3,-28.00000000,,Record Length,2500,Points,-24.99999851E-3,-2.0000000,
Sample Interval,19.9999995E-6,s,-24.97999929E-3,-30.00000000,,Sample Interval,19.9999995E-6,s,-24.97999929E-3,-30.00000000,,Sample Interval,19.9999995E-6,s,-24.97999929E-3,0.0,
Trigger Point,1.2500000E3,Samples,-24.95999821E-3,-30.00000000,,Trigger Point,1.2500000E3,Samples,-24.95999821E-3,-30.00000000,,Trigger Point,1.2500000E3,Samples,-24.95999821E-3,0.0,
,,,-24.93999898E-3,-32.00000000,,,,,-24.93999898E-3,-30.00000000,,,,,-24.93999898E-3,0.0,
,,,-24.91999790E-3,-30.00000000,,,,,-24.91999790E-3,-30.00000000,,,,,-24.91999790E-3,0.0,
,,,-24.89999868E-3,-32.00000000,,,,,-24.89999868E-3,-32.00000000,,,,,-24.89999868E-3,-2.0000000,
Source,CH1,,-24.87999760E-3,-34.00000000,,Source,CH2,,-24.87999760E-3,-34.00000000,,Source,MATH,,-24.87999760E-3,0.0,
Vertical Units,Volts,,-24.85999838E-3,-32.00000000,,Vertical Units,Volts,,-24.85999838E-3,-34.00000000,,Vertical Units,Volts,,-24.85999838E-3,0.0,
Vertical Scale,50.00000000,,-24.83999915E-3,-34.00000000,,Vertical Scale,50.00000000,,-24.83999915E-3,-34.00000000,,Vertical Scale,50.00000000,,-24.83999915E-3,0.0,
Vertical Offset,0,,-24.81999807E-3,-36.00000000,,Vertical Offset,0,,-24.81999807E-3,-36.00000000,,Vertical Offset,0,,-24.81999807E-3,0.0,
Horizontal Units,s,,-24.79999885E-3,-36.00000000,,Horizontal Units,s,,-24.79999885E-3,-36.00000000,,Horizontal Units,s,,-24.79999885E-3,2.0000000,
Horizontal Scale,4.99999987E-3,,-24.77999777E-3,-36.00000000,,Horizontal Scale,4.99999987E-3,,-24.77999777E-3,-36.00000000,,Horizontal Scale,4.99999987E-3,,-24.77999777E-3,0.0,
Pt Fmt,Y,,-24.75999855E-3,-38.00000000,,Pt Fmt,Y,,-24.75999855E-3,-36.00000000,,Pt Fmt,Y,,-24.75999855E-3,2.0000000,
Yzero,-40.00000000E-3,,-24.73999932E-3,-38.00000000,,Yzero,0.0,,-24.73999932E-3,-38.00000000,,Yzero,0.0,,-24.73999932E-3,0.0,
Probe Atten,10.0000000,,-24.71999824E-3,-38.00000000,,Probe Atten,10.0000000,,-24.71999824E-3,-38.00000000,,,,,-24.71999824E-3,-2.0000000,
,,,-24.69999902E-3,-38.00000000,,,,,-24.69999902E-3,-40.00000000,,,,,-24.69999902E-3,0.0,
Note,TBS 1072B - 22:56:58   23/09/2016,,-24.67999794E-3,-40.00000000,,Note,TBS 1072B - 22:56:58   23/09/2016,,-24.67999794E-3,-40.00000000,,Note,TBS 1072B - 22:56:58   23/09/2016,,-24.67999794E-3,0.0,
,,,-24.65999871E-3,-38.00000000,,,,,-24.65999871E-3,-40.00000000,,,,,-24.65999871E-3,0.0,
,,,-24.63999763E-3,-40.00000000,,,,,-24.63999763E-3,-40.00000000,,,,,-24.63999763E-3,0.0,
,,,-24.61999841E-3,-40.00000000,,,,,-24.61999841E-3,-40.00000000,,,,,-24.61999841E-3,0.0,
,,,-24.59999919E-3,-42.00000000,,,,,-24.59999919E-3,-42.00000000,,,,,-24.59999919E-3,2.0000000,
,,,-24.57999811E-3,-42.00000000,,,,,-24.57999811E-3,-42.00000000,,,,,-24.57999811E-3,0.0,
,,,-24.55999888E-3,-42.00000000,,,,,-24.55999888E-3,-42.00000000,,,,,-24.55999888E-3,0.0,
,,,-24.53999780E-3,-44.00000000,,,,,-24.53999780E-3,-44.00000000,,,,,-24.53999780E-3,0.0,
,,,-24.51999858E-3,-44.00000000,,,,,-24.51999858E-3,-46.00000000,,,,,-24.51999858E-3,0.0,
,,,-24.49999936E-3,-46.00000000,,,,,-24.49999936E-3,-46.00000000,,,,,-24.49999936E-3,-2.0000000,
,,,-24.47999828E-3,-46.00000000,,,,,-24.47999828E-3,-46.00000000,,,,,-24.47999828E-3,0.0,
,,,-24.45999905E-3,-46.00000000,,,,,-24.45999905E-3,-46.00000000,,,,,-24.45999905E-3,0.0,
,,,-24.43999797E-3,-46.00000000,,,,,-24.43999797E-3,-46.00000000,,,,,-24.43999797E-3,2.0000000,
,,,-24.41999875E-3,-46.00000000,,,,,-24.41999875E-3,-48.00000000,,,,,-24.41999875E-3,2.0000000,
,,,-24.39999767E-3,-48.00000000,,,,,-24.39999767E-3,-50.00000000,,,,,-24.39999767E-3,0.0,
,,,-24.37999845E-3,-48.00000000,,,,,-24.37999845E-3,-50.00000000,,,,,-24.37999845E-3,0.0,
,,,-24.35999922E-3,-48.00000000,,,,,-24.35999922E-3,-50.00000000,,,,,-24.35999922E-3,0.0,
,,,-24.33999814E-3,-52.00000000,,,,,-24.33999814E-3,-50.00000000,,,,,-24.33999814E-3,-2.0000000,
,,,-24.31999892E-3,-52.00000000,,,,,-24.31999892E-3,-50.00000000,,,,,-24.31999892E-3,0.0,
,,,-24.29999784E-3,-54.00000000,,,,,-24.29999784E-3,-52.00000000,,,,,-24.29999784E-3,0.0,
,,,-24.27999862E-3,-54.00000000,,,,,-24.27999862E-3,-52.00000000,,,,,-24.27999862E-3,2.0000000,
,,,-24.25999939E-3,-52.00000000,,,,,-24.25999939E-3,-54.00000000,,,,,-24.25999939E-3,0.0,
,,,-24.23999831E-3,-54.00000000,,,,,-24.23999831E-3,-54.00000000,,,,,-24.23999831E-3,0.0,
,,,-24.21999909E-3,-54.00000000,,,,,-24.21999909E-3,-54.00000000,,,,,-24.21999909E-3,0.0,
,,,-24.19999801E-3,-54.00000000,,,,,-24.19999801E-3,-56.000000000,,,,,-24.19999801E-3,0.0,
,,,-24.17999879E-3,-56.000000000,,,,,-24.17999879E-3,-56.000000000,,,,,-24.17999879E-3,2.0000000,
,,,-24.15999770E-3,-56.000000000,,,,,-24.15999770E-3,-58.000000000,,,,,-24.15999770E-3,2.0000000,
,,,-24.13999848E-3,-56.000000000,,,,,-24.13999848E-3,-58.000000000,,,,,-24.13999848E-3,0.0,
,,,-24.11999926E-3,-56.000000000,,,,,-24.11999926E-3,-58.000000000,,,,,-24.11999926E-3,2.0000000,
,,,-24.09999818E-3,-58.000000000,,,,,-24.09999818E-3,-58.000000000,,,,,-24.09999818E-3,0.0,
,,,-24.07999896E-3,-58.000000000,,,,,-24.07999896E-3,-58.000000000,,,,,-24.07999896E-3,2.0000000,
,,,-24.05999787E-3,-60.000000000,,,,,-24.05999787E-3,-58.000000000,,,,,-24.05999787E-3,0.0,
,,,-24.03999865E-3,-60.000000000,,,,,-24.03999865E-3,-60.000000000,,,,,-24.03999865E-3,0.0,
,,,-24.01999943E-3,-60.000000000,,,,,-24.01999943E-3,-60.000000000,,,,,-24.01999943E-3,2.0000000,
,,,-23.99999835E-3,-62.000000000,,,,,-23.99999835E-3,-62.000000000,,,,,-23.99999835E-3,0.0,
,,,-23.97999913E-3,-62.000000000,,,,,-23.97999913E-3,-64.000000000,,,,,-23.97999913E-3,0.0,
,,,-23.95999804E-3,-62.000000000,,,,,-23.95999804E-3,-64.000000000,,,,,-23.95999804E-3,0.0,
,,,-23.93999882E-3,-64.000000000,,,,,-23.93999882E-3,-64.000000000,,,,,-23.93999882E-3,-2.0000000,
,,,-23.91999774E-3,-64.000000000,,,,,-23.91999774E-3,-64.000000000,,,,,-23.91999774E-3,0.0,
,,,-23.89999852E-3,-64.000000000,,,,,-23.89999852E-3,-64.000000000,,,,,-23.89999852E-3,-2.0000000,
,,,-23.87999929E-3,-64.000000000,,,,,-23.87999929E-3,-66.000000000,,,,,-23.87999929E-3,0.0,
,,,-23.85999821E-3,-64.000000000,,,,,-23.85999821E-3,-66.000000000,,,,,-23.85999821E-3,0.0,
,,,-23.83999899E-3,-66.000000000,,,,,-23.83999899E-3,-68.000000000,,,,,-23.83999899E-3,0.0,
,,,-23.81999791E-3,-66.000000000,,,,,-23.81999791E-3,-68.000000000,,,,,-23.81999791E-3,2.0000000,
,,,-23.79999869E-3,-66.000000000,,,,,-23.79999869E-3,-68.000000000,,,,,-23.79999869E-3,0.0,
,,,-23.77999946E-3,-68.000000000,,,,,-23.77999946E-3,-68.000000000,,,,,-23.77999946E-3,0.0,
,,,-23.75999838E-3,-70.000000000,,,,,-23.75999838E-3,-68.000000000,,,,,-23.75999838E-3,0.0,
,,,-23.73999916E-3,-70.000000000,,,,,-23.73999916E-3,-68.000000000,,,,,-23.73999916E-3,0.0,
,,,-23.71999808E-3,-70.000000000,,,,,-23.71999808E-3,-70.000000000,,,,,-23.71999808E-3,-2.0000000,
,,,-23.69999886E-3,-70.000000000,,,,,-23.69999886E-3,-70.000000000,,,,,-23.69999886E-3,2.0000000,
,,,-23.67999777E-3,-70.000000000,,,,,-23.67999777E-3,-70.000000000,,,,,-23.67999777E-3,0.0,
,,,-23.65999855E-3,-70.000000000,,,,,-23.65999855E-3,-72.000000000,,,,,-23.65999855E-3,0.0,
,,,-23.63999933E-3,-72.000000000,,,,,-23.63999933E-3,-72.000000000,,,,,-23.63999933E-3,0.0,
,,,-23.61999825E-3,-72.000000000,,,,,-23.61999825E-3,-72.000000000,,,,,-23.61999825E-3,0.0,
,,,-23.59999903E-3,-72.000000000,,,,,-23.59999903E-3,-74.000000000,,,,,-23.59999903E-3,2.0000000,
,,,-23.57999794E-3,-72.000000000,,,,,-23.57999794E-3,-74.000000000,,,,,-23.57999794E-3,0.0,
,,,-23.55999872E-3,-74.000000000,,,,,-23.55999872E-3,-74.000000000,,,,,-23.55999872E-3,0.0,
,,,-23.53999764E-3,-74.000000000,,,,,-23.53999764E-3,-74.000000000,,,,,-23.53999764E-3,-2.0000000,
,,,-23.51999842E-3,-76.000000000,,,,,-23.51999842E-3,-76.000000000,,,,,-23.51999842E-3,-2.0000000,
,,,-23.49999920E-3,-76.000000000,,,,,-23.49999920E-3,-76.000000000,,,,,-23.49999920E-3,0.0,
,,,-23.47999811E-3,-76.000000000,,,,,-23.47999811E-3,-76.000000000,,,,,-23.47999811E-3,0.0,
,,,-23.45999889E-3,-76.000000000,,,,,-23.45999889E-3,-76.000000000,,,,,-23.45999889E-3,0.0,
,,,-23.43999781E-3,-78.000000000,,,,,-23.43999781E-3,-78.000000000,,,,,-23.43999781E-3,2.0000000,
,,,-23.41999859E-3,-78.000000000,,,,,-23.41999859E-3,-76.000000000,,,,,-23.41999859E-3,0.0,
,,,-23.39999937E-3,-78.000000000,,,,,-23.39999937E-3,-78.000000000,,,,,-23.39999937E-3,0.0,
,,,-23.37999828E-3,-78.000000000,,,,,-23.37999828E-3,-80.000000000,,,,,-23.37999828E-3,2.0000000,
,,,-23.35999906E-3,-80.000000000,,,,,-23.35999906E-3,-80.000000000,,,,,-23.35999906E-3,0.0,
,,,-23.33999798E-3,-80.000000000,,,,,-23.33999798E-3,-80.000000000,,,,,-23.33999798E-3,-2.0000000,
,,,-23.31999876E-3,-80.000000000,,,,,-23.31999876E-3,-82.000000000,,,,,-23.31999876E-3,-2.0000000,
,,,-23.29999767E-3,-82.000000000,,,,,-23.29999767E-3,-132.0000000,,,,,-23.29999767E-3,-2.0000000,
,,,-23.27999845E-3,0.0,,,,,-23.27999845E-3,-60.000000000,,,,,-23.27999845E-3,90.000000000,
,,,-23.25999923E-3,0.0,,,,,-23.25999923E-3,-60.000000000,,,,,-23.25999923E-3,54.00000000,
,,,-23.23999815E-3,0.0,,,,,-23.23999815E-3,-70.000000000,,,,,-23.23999815E-3,62.000000000,
,,,-23.21999893E-3,0.0,,,,,-23.21999893E-3,-80.000000000,,,,,-23.21999893E-3,74.000000000,
,,,-23.19999784E-3,0.0,,,,,-23.19999784E-3,-88.000000000,,,,,-23.19999784E-3,82.000000000,
,,,-23.17999862E-3,0.0,,,,,-23.17999862E-3,-94.000000000,,,,,-23.17999862E-3,90.000000000,
,,,-23.15999940E-3,0.0,,,,,-23.15999940E-3,-100.0000000,,,,,-23.15999940E-3,96.000000000,
,,,-23.13999832E-3,0.0,,,,,-23.13999832E-3,-106.0000000,,,,,-23.13999832E-3,102.0000000,
,,,-23.11999910E-3,-2.0000000,,,,,-23.11999910E-3,-110.0000000,,,,,-23.11999910E-3,108.0000000,
,,,-23.09999801E-3,0.0,,,,,-23.09999801E-3,-112.0000000,,,,,-23.09999801E-3,112.0000000,
,,,-23.07999879E-3,-2.0000000,,,,,-23.07999879E-3,-116.0000000,,,,,-23.07999879E-3,114.0000000,
,,,-23.05999771E-3,0.0,,,,,-23.05999771E-3,-122.0000000,,,,,-23.05999771E-3,118.0000000,
,,,-23.03999849E-3,0.0,,,,,-23.03999849E-3,-126.0000000,,,,,-23.03999849E-3,124.0000000,
,,,-23.01999927E-3,0.0,,,,,-23.01999927E-3,-130.0000000,,,,,-23.01999927E-3,126.0000000,
,,,-22.99999818E-3,0.0,,,,,-22.99999818E-3,-130.0000000,,,,,-22.99999818E-3,132.0000000,
,,,-22.97999896E-3,0.0,,,,,-22.97999896E-3,-134.0000000,,,,,-22.97999896E-3,134.0000000,
,,,-22.95999788E-3,0.0,,,,,-22.95999788E-3,-138.0000000,,,,,-22.95999788E-3,138.0000000,
,,,-22.93999866E-3,0.0,,,,,-22.93999866E-3,-142.0000000,,,,,-22.93999866E-3,140.0000000,
,,,-22.91999944E-3,0.0,,,,,-22.91999944E-3,-142.0000000,,,,,-22.91999944E-3,144.0000000,
,,,-22.89999835E-3,0.0,,,,,-22.89999835E-3,-148.0000000,,,,,-22.89999835E-3,146.0000000,
,,,-22.87999913E-3,0.0,,,,,-22.87999913E-3,-148.0000000,,,,,-22.87999913E-3,148.0000000,
,,,-22.85999805E-3,0.0,,,,,-22.85999805E-3,-152.00000000,,,,,-22.85999805E-3,148.0000000,
,,,-22.83999883E-3,0.0,,,,,-22.83999883E-3,-154.00000000,,,,,-22.83999883E-3,152.00000000,
,,,-22.81999774E-3,-2.0000000,,,,,-22.81999774E-3,-154.00000000,,,,,-22.81999774E-3,154.00000000,
,,,-22.79999852E-3,-2.0000000,,,,,-22.79999852E-3,-156.00000000,,,,,-22.79999852E-3,156.00000000,
,,,-22.77999930E-3,0.0,,,,,-22.77999930E-3,-158.00000000,,,,,-22.77999930E-3,156.00000000,
,,,-22.75999822E-3,0.0,,,,,-22.75999822E-3,-160.00000000,,,,,-22.75999822E-3,156.00000000,
,,,-22.73999900E-3,0.0,,,,,-22.73999900E-3,-160.00000000,,,,,-22.73999900E-3,160.00000000,
,,,-22.71999791E-3,0.0,,,,,-22.71999791E-3,-162.00000000,,,,,-22.71999791E-3,160.00000000,
,,,-22.69999869E-3,0.0,,,,,-22.69999869E-3,-162.00000000,,,,,-22.69999869E-3,162.00000000,
,,,-22.67999947E-3,0.0,,,,,-22.67999947E-3,-162.00000000,,,,,-22.67999947E-3,162.00000000,
,,,-22.65999839E-3,0.0,,,,,-22.65999839E-3,-164.00000000,,,,,-22.65999839E-3,164.00000000,
,,,-22.63999917E-3,0.0,,,,,-22.63999917E-3,-164.00000000,,,,,-22.63999917E-3,166.00000000,
,,,-22.61999808E-3,-2.0000000,,,,,-22.61999808E-3,-166.00000000,,,,,-22.61999808E-3,166.00000000,
,,,-22.59999886E-3,0.0,,,,,-22.59999886E-3,-168.00000000,,,,,-22.59999886E-3,166.00000000,
,,,-22.57999778E-3,-2.0000000,,,,,-22.57999778E-3,-168.00000000,,,,,-22.57999778E-3,166.00000000,
,,,-22.55999856E-3,0.0,,,,,-22.55999856E-3,-170.00000000,,,,,-22.55999856E-3,168.00000000,
,,,-22.53999934E-3,0.0,,,,,-22.53999934E-3,-170.00000000,,,,,-22.53999934E-3,170.00000000,
,,,-22.51999825E-3,0.0,,,,,-22.51999825E-3,-170.00000000,,,,,-22.51999825E-3,170.00000000,
,,,-22.49999903E-3,0.0,,,,,-22.49999903E-3,-170.00000000,,,,,-22.49999903E-3,170.00000000,
,,,-22.47999795E-3,0.0,,,,,-22.47999795E-3,-172.00000000,,,,,-22.47999795E-3,174.00000000,
,,,-22.45999873E-3,0.0,,,,,-22.45999873E-3,-172.00000000,,,,,-22.45999873E-3,172.00000000,
,,,-22.43999764E-3,0.0,,,,,-22.43999764E-3,-172.00000000,,,,,-22.43999764E-3,172.00000000,
,,,-22.41999842E-3,0.0,,,,,-22.41999842E-3,-174.00000000,,,,,-22.41999842E-3,172.00000000,
,,,-22.39999920E-3,0.0,,,,,-22.39999920E-3,-174.00000000,,,,,-22.39999920E-3,172.00000000,
,,,-22.37999812E-3,0.0,,,,,-22.37999812E-3,-176.00000000,,,,,-22.37999812E-3,174.00000000,
,,,-22.35999890E-3,-2.0000000,,,,,-22.35999890E-3,-176.00000000,,,,,-22.35999890E-3,174.00000000,
,,,-22.33999781E-3,0.0,,,,,-22.33999781E-3,-176.00000000,,,,,-22.33999781E-3,172.00000000,
,,,-22.31999859E-3,0.0,,,,,-22.31999859E-3,-176.00000000,,,,,-22.31999859E-3,174.00000000,
,,,-22.29999937E-3,0.0,,,,,-22.29999937E-3,-176.00000000,,,,,-22.29999937E-3,172.00000000,
,,,-22.27999829E-3,0.0,,,,,-22.27999829E-3,-176.00000000,,,,,-22.27999829E-3,176.00000000,
,,,-22.25999907E-3,0.0,,,,,-22.25999907E-3,-174.00000000,,,,,-22.25999907E-3,176.00000000,
,,,-22.23999798E-3,0.0,,,,,-22.23999798E-3,-176.00000000,,,,,-22.23999798E-3,176.00000000,
,,,-22.21999876E-3,0.0,,,,,-22.21999876E-3,-176.00000000,,,,,-22.21999876E-3,176.00000000,
,,,-22.19999768E-3,0.0,,,,,-22.19999768E-3,-178.00000000,,,,,-22.19999768E-3,178.00000000,
,,,-22.17999846E-3,-2.0000000,,,,,-22.17999846E-3,-178.00000000,,,,,-22.17999846E-3,176.00000000,
,,,-22.15999924E-3,0.0,,,,,-22.15999924E-3,-178.00000000,,,,,-22.15999924E-3,176.00000000,
,,,-22.13999815E-3,0.0,,,,,-22.13999815E-3,-178.00000000,,,,,-22.13999815E-3,178.00000000,
,,,-22.11999893E-3,0.0,,,,,-22.11999893E-3,-178.00000000,,,,,-22.11999893E-3,180.00000000,
,,,-22.09999785E-3,0.0,,,,,-22.09999785E-3,-178.00000000,,,,,-22.09999785E-3,180.00000000,
,,,-22.07999863E-3,0.0,,,,,-22.07999863E-3,-180.00000000,,,,,-22.07999863E-3,180.00000000,
,,,-22.05999941E-3,-2.0000000,,,,,-22.05999941E-3,-180.00000000,,,,,-22.05999941E-3,180.00000000,
,,,-22.03999832E-3,0.0,,,,,-22.03999832E-3,-180.00000000,,,,,-22.03999832E-3,180.00000000,
,,,-22.01999910E-3,-2.0000000,,,,,-22.01999910E-3,-178.00000000,,,,,-22.01999910E-3,176.00000000,
,,,-21.99999802E-3,0.0,,,,,-21.99999802E-3,-180.00000000,,,,,-21.99999802E-3,178.00000000,
,,,-21.97999880E-3,0.0,,,,,-21.97999880E-3,-180.00000000,,,,,-21.97999880E-3,176.00000000,
,,,-21.95999771E-3,0.0,,,,,-21.95999771E-3,-180.00000000,,,,,-21.95999771E-3,178.00000000,
,,,-21.93999849E-3,0.0,,,,,-21.93999849E-3,-182.00000000,,,,,-21.93999849E-3,182.00000000,
,,,-21.91999927E-3,0.0,,,,,-21.91999927E-3,-182.00000000,,,,,-21.91999927E-3,182.00000000,
,,,-21.89999819E-3,0.0,,,,,-21.89999819E-3,-182.00000000,,,,,-21.89999819E-3,182.00000000,
,,,-21.87999897E-3,0.0,,,,,-21.87999897E-3,-184.00000000,,,,,-21.87999897E-3,184.00000000,
,,,-21.85999788E-3,0.0,,,,,-21.85999788E-3,-182.00000000,,,,,-21.85999788E-3,184.00000000,
,,,-21.83999866E-3,0.0,,,,,-21.83999866E-3,-182.00000000,,,,,-21.83999866E-3,182.00000000,
,,,-21.81999944E-3,0.0,,,,,-21.81999944E-3,-182.00000000,,,,,-21.81999944E-3,180.00000000,
,,,-21.79999836E-3,0.0,,,,,-21.79999836E-3,-182.00000000,,,,,-21.79999836E-3,180.00000000,
,,,-21.77999914E-3,0.0,,,,,-21.77999914E-3,-182.00000000,,,,,-21.77999914E-3,182.00000000,
,,,-21.75999805E-3,0.0,,,,,-21.75999805E-3,-182.00000000,,,,,-21.75999805E-3,182.00000000,
,,,-21.73999883E-3,0.0,,,,,-21.73999883E-3,-182.00000000,,,,,-21.73999883E-3,182.00000000,
,,,-21.71999775E-3,0.0,,,,,-21.71999775E-3,-184.00000000,,,,,-21.71999775E-3,184.00000000,
,,,-21.69999853E-3,-2.0000000,,,,,-21.69999853E-3,-184.00000000,,,,,-21.69999853E-3,184.00000000,
,,,-21.67999931E-3,0.0,,,,,-21.67999931E-3,-184.00000000,,,,,-21.67999931E-3,182.00000000,
,,,-21.65999822E-3,0.0,,,,,-21.65999822E-3,-184.00000000,,,,,-21.65999822E-3,182.00000000,
,,,-21.63999900E-3,0.0,,,,,-21.63999900E-3,-182.00000000,,,,,-21.63999900E-3,182.00000000,
,,,-21.61999792E-3,0.0,,,,,-21.61999792E-3,-182.00000000,,,,,-21.61999792E-3,182.00000000,
,,,-21.59999870E-3,0.0,,,,,-21.59999870E-3,-182.00000000,,,,,-21.59999870E-3,182.00000000,
,,,-21.57999948E-3,0.0,,,,,-21.57999948E-3,-184.00000000,,,,,-21.57999948E-3,186.00000000,
,,,-21.55999839E-3,0.0,,,,,-21.55999839E-3,-182.00000000,,,,,-21.55999839E-3,184.00000000,
,,,-21.53999917E-3,0.0,,,,,-21.53999917E-3,-182.00000000,,,,,-21.53999917E-3,184.00000000,
,,,-21.51999809E-3,0.0,,,,,-21.51999809E-3,-182.00000000,,,,,-21.51999809E-3,184.00000000,
,,,-21.49999887E-3,0.0,,,,,-21.49999887E-3,-182.00000000,,,,,-21.49999887E-3,184.00000000,
,,,-21.47999778E-3,0.0,,,,,-21.47999778E-3,-182.00000000,,,,,-21.47999778E-3,180.00000000,
,,,-21.45999856E-3,0.0,,,,,-21.45999856E-3,-182.00000000,,,,,-21.45999856E-3,182.00000000,
,,,-21.43999934E-3,0.0,,,,,-21.43999934E-3,-184.00000000,,,,,-21.43999934E-3,182.00000000,
,,,-21.41999826E-3,0.0,,,,,-21.41999826E-3,-186.00000000,,,,,-21.41999826E-3,184.00000000,
,,,-21.39999904E-3,0.0,,,,,-21.39999904E-3,-186.00000000,,,,,-21.39999904E-3,184.00000000,
,,,-21.37999795E-3,0.0,,,,,-21.37999795E-3,-184.00000000,,,,,-21.37999795E-3,184.00000000,
,,,-21.35999873E-3,0.0,,,,,-21.35999873E-3,-182.00000000,,,,,-21.35999873E-3,184.00000000,
,,,-21.33999951E-3,-2.0000000,,,,,-21.33999951E-3,-182.00000000,,,,,-21.33999951E-3,184.00000000,
,,,-21.31999843E-3,0.0,,,,,-21.31999843E-3,-182.00000000,,,,,-21.31999843E-3,182.00000000,
,,,-21.29999921E-3,0.0,,,,,-21.29999921E-3,-184.00000000,,,,,-21.29999921E-3,184.00000000,
,,,-21.27999812E-3,0.0,,,,,-21.27999812E-3,-182.00000000,,,,,-21.27999812E-3,184.00000000,
,,,-21.25999890E-3,0.0,,,,,-21.25999890E-3,-184.00000000,,,,,-21.25999890E-3,184.00000000,
,,,-21.23999782E-3,0.0,,,,,-21.23999782E-3,-184.00000000,,,,,-21.23999782E-3,184.00000000,
,,,-21.21999860E-3,0.0,,,,,-21.21999860E-3,-182.00000000,,,,,-21.21999860E-3,184.00000000,
,,,-21.19999938E-3,0.0,,,,,-21.19999938E-3,-182.00000000,,,,,-21.19999938E-3,184.00000000,
,,,-21.17999829E-3,0.0,,,,,-21.17999829E-3,-182.00000000,,,,,-21.17999829E-3,182.00000000,
,,,-21.15999907E-3,0.0,,,,,-21.15999907E-3,-184.00000000,,,,,-21.15999907E-3,182.00000000,
,,,-21.13999799E-3,0.0,,,,,-21.13999799E-3,-184.00000000,,,,,-21.13999799E-3,184.00000000,
,,,-21.11999877E-3,0.0,,,,,-21.11999877E-3,-184.00000000,,,,,-21.11999877E-3,182.00000000,
,,,-21.09999768E-3,-2.0000000,,,,,-21.09999768E-3,-182.00000000,,,,,-21.09999768E-3,182.00000000,
,,,-21.07999846E-3,0.0,,,,,-21.07999846E-3,-182.00000000,,,,,-21.07999846E-3,182.00000000,
,,,-21.05999924E-3,0.0,,,,,-21.05999924E-3,-182.00000000,,,,,-21.05999924E-3,182.00000000,
,,,-21.03999816E-3,0.0,,,,,-21.03999816E-3,-182.00000000,,,,,-21.03999816E-3,182.00000000,
,,,-21.01999894E-3,0.0,,,,,-21.01999894E-3,-182.00000000,,,,,-21.01999894E-3,182.00000000,
,,,-20.99999785E-3,0.0,,,,,-20.99999785E-3,-180.00000000,,,,,-20.99999785E-3,182.00000000,
,,,-20.97999863E-3,0.0,,,,,-20.97999863E-3,-180.00000000,,,,,-20.97999863E-3,180.00000000,
,,,-20.95999941E-3,0.0,,,,,-20.95999941E-3,-178.00000000,,,,,-20.95999941E-3,180.00000000,
,,,-20.93999833E-3,0.0,,,,,-20.93999833E-3,-180.00000000,,,,,-20.93999833E-3,180.00000000,
,,,-20.91999911E-3,0.0,,,,,-20.91999911E-3,-180.00000000,,,,,-20.91999911E-3,180.00000000,
,,,-20.89999802E-3,0.0,,,,,-20.89999802E-3,-178.00000000,,,,,-20.89999802E-3,178.00000000,
,,,-20.87999880E-3,0.0,,,,,-20.87999880E-3,-178.00000000,,,,,-20.87999880E-3,176.00000000,
,,,-20.85999772E-3,0.0,,,,,-20.85999772E-3,-180.00000000,,,,,-20.85999772E-3,178.00000000,
