Exp1/dados/trifasico/Dados tensão na carga V+ V- V.csv

Record Length,2500,Points,-49.99999702E-3,142.0000000,,Record Length,2500,Points,-49.99999702E-3,-178.00000000,,Record Length,2500,Points,-49.99999702E-3,332.00000000,
Sample Interval,39.99999899E-6,s,-49.95999858E-3,144.0000000,,Sample Interval,39.99999899E-6,s,-49.95999858E-3,-176.00000000,,Sample Interval,39.99999899E-6,s,-49.95999858E-3,332.00000000,
Trigger Point,1.2500000E3,Samples,-49.91999641E-3,146.0000000,,Trigger Point,1.2500000E3,Samples,-49.91999641E-3,-172.00000000,,Trigger Point,1.2500000E3,Samples,-49.91999641E-3,332.00000000,
,,,-49.87999797E-3,150.00000000,,,,,-49.87999797E-3,-170.00000000,,,,,-49.87999797E-3,328.00000000,
,,,-49.83999580E-3,154.00000000,,,,,-49.83999580E-3,-170.00000000,,,,,-49.83999580E-3,332.00000000,
,,,-49.79999736E-3,156.00000000,,,,,-49.79999736E-3,-170.00000000,,,,,-49.79999736E-3,332.00000000,
Source,CH1,,-49.75999519E-3,158.00000000,,Source,CH2,,-49.75999519E-3,-172.00000000,,Source,MATH,,-49.75999519E-3,332.00000000,
Vertical Units,Volts,,-49.71999675E-3,160.00000000,,Vertical Units,Volts,,-49.71999675E-3,-172.00000000,,Vertical Units,Volts,,-49.71999675E-3,332.00000000,
Vertical Scale,50.00000000,,-49.67999831E-3,160.00000000,,Vertical Scale,50.00000000,,-49.67999831E-3,-170.00000000,,Vertical Scale,100.0000000,,-49.67999831E-3,332.00000000,
Vertical Offset,0,,-49.63999614E-3,162.00000000,,Vertical Offset,0,,-49.63999614E-3,-168.00000000,,Vertical Offset,0,,-49.63999614E-3,328.00000000,
Horizontal Units,s,,-49.59999770E-3,164.00000000,,Horizontal Units,s,,-49.59999770E-3,-168.00000000,,Horizontal Units,s,,-49.59999770E-3,328.00000000,
Horizontal Scale,9.999999747E-3,,-49.55999553E-3,164.00000000,,Horizontal Scale,9.999999747E-3,,-49.55999553E-3,-166.00000000,,Horizontal Scale,9.999999747E-3,,-49.55999553E-3,328.00000000,
Pt Fmt,Y,,-49.51999709E-3,166.00000000,,Pt Fmt,Y,,-49.51999709E-3,-164.00000000,,Pt Fmt,Y,,-49.51999709E-3,328.00000000,
Yzero,0.0,,-49.47999865E-3,168.00000000,,Yzero,0.0,,-49.47999865E-3,-162.00000000,,Yzero,-80.000000000E-3,,-49.47999865E-3,324.00000000,
Probe Atten,10.0000000,,-49.43999648E-3,170.00000000,,Probe Atten,10.0000000,,-49.43999648E-3,-162.00000000,,,,,-49.43999648E-3,324.00000000,
,,,-49.39999804E-3,172.00000000,,,,,-49.39999804E-3,-162.00000000,,,,,-49.39999804E-3,324.00000000,
Note,TBS 1072B - 23:01:40   09/09/2016,,-49.35999587E-3,172.00000000,,Note,TBS 1072B - 23:01:40   09/09/2016,,-49.35999587E-3,-160.00000000,,Note,TBS 1072B - 23:01:40   09/09/2016,,-49.35999587E-3,324.00000000,
,,,-49.31999743E-3,172.00000000,,,,,-49.31999743E-3,-160.00000000,,,,,-49.31999743E-3,320.00000000,
,,,-49.27999526E-3,174.00000000,,,,,-49.27999526E-3,-158.00000000,,,,,-49.27999526E-3,324.00000000,
,,,-49.23999682E-3,174.00000000,,,,,-49.23999682E-3,-156.00000000,,,,,-49.23999682E-3,320.00000000,
,,,-49.19999838E-3,176.00000000,,,,,-49.19999838E-3,-152.00000000,,,,,-49.19999838E-3,316.00000000,
,,,-49.15999621E-3,176.00000000,,,,,-49.15999621E-3,-150.00000000,,,,,-49.15999621E-3,316.00000000,
,,,-49.11999777E-3,178.00000000,,,,,-49.11999777E-3,-148.0000000,,,,,-49.11999777E-3,316.00000000,
,,,-49.07999560E-3,180.00000000,,,,,-49.07999560E-3,-148.0000000,,,,,-49.07999560E-3,316.00000000,
,,,-49.03999716E-3,180.00000000,,,,,-49.03999716E-3,-146.0000000,,,,,-49.03999716E-3,312.00000000,
,,,-48.99999872E-3,178.00000000,,,,,-48.99999872E-3,-144.0000000,,,,,-48.99999872E-3,312.00000000,
,,,-48.95999655E-3,178.00000000,,,,,-48.95999655E-3,-144.0000000,,,,,-48.95999655E-3,308.00000000,
,,,-48.91999811E-3,176.00000000,,,,,-48.91999811E-3,-142.0000000,,,,,-48.91999811E-3,308.00000000,
,,,-48.87999594E-3,176.00000000,,,,,-48.87999594E-3,-140.0000000,,,,,-48.87999594E-3,304.00000000,
,,,-48.83999750E-3,178.00000000,,,,,-48.83999750E-3,-138.0000000,,,,,-48.83999750E-3,300.00000000,
,,,-48.79999533E-3,180.00000000,,,,,-48.79999533E-3,-134.0000000,,,,,-48.79999533E-3,300.00000000,
,,,-48.75999689E-3,182.00000000,,,,,-48.75999689E-3,-134.0000000,,,,,-48.75999689E-3,296.00000000,
,,,-48.71999845E-3,184.00000000,,,,,-48.71999845E-3,-132.0000000,,,,,-48.71999845E-3,296.00000000,
,,,-48.67999628E-3,184.00000000,,,,,-48.67999628E-3,-130.0000000,,,,,-48.67999628E-3,292.00000000,
,,,-48.63999784E-3,186.00000000,,,,,-48.63999784E-3,-130.0000000,,,,,-48.63999784E-3,292.00000000,
,,,-48.59999567E-3,184.00000000,,,,,-48.59999567E-3,-130.0000000,,,,,-48.59999567E-3,288.00000000,
,,,-48.55999723E-3,184.00000000,,,,,-48.55999723E-3,-126.0000000,,,,,-48.55999723E-3,288.00000000,
,,,-48.51999879E-3,184.00000000,,,,,-48.51999879E-3,-124.0000000,,,,,-48.51999879E-3,284.00000000,
,,,-48.47999662E-3,182.00000000,,,,,-48.47999662E-3,-120.0000000,,,,,-48.47999662E-3,280.00000000,
,,,-48.43999818E-3,182.00000000,,,,,-48.43999818E-3,-116.0000000,,,,,-48.43999818E-3,276.00000000,
,,,-48.39999601E-3,184.00000000,,,,,-48.39999601E-3,-116.0000000,,,,,-48.39999601E-3,280.00000000,
,,,-48.35999757E-3,186.00000000,,,,,-48.35999757E-3,-116.0000000,,,,,-48.35999757E-3,284.00000000,
,,,-48.31999540E-3,188.00000000,,,,,-48.31999540E-3,-114.0000000,,,,,-48.31999540E-3,284.00000000,
,,,-48.27999696E-3,186.00000000,,,,,-48.27999696E-3,-108.0000000,,,,,-48.27999696E-3,288.00000000,
,,,-48.23999852E-3,184.00000000,,,,,-48.23999852E-3,-102.0000000,,,,,-48.23999852E-3,292.00000000,
,,,-48.19999635E-3,184.00000000,,,,,-48.19999635E-3,-98.000000000,,,,,-48.19999635E-3,296.00000000,
,,,-48.15999791E-3,184.00000000,,,,,-48.15999791E-3,-100.0000000,,,,,-48.15999791E-3,296.00000000,
,,,-48.11999574E-3,186.00000000,,,,,-48.11999574E-3,-102.0000000,,,,,-48.11999574E-3,300.00000000,
,,,-48.07999730E-3,186.00000000,,,,,-48.07999730E-3,-94.000000000,,,,,-48.07999730E-3,300.00000000,
,,,-48.03999886E-3,186.00000000,,,,,-48.03999886E-3,-92.000000000,,,,,-48.03999886E-3,300.00000000,
,,,-47.99999669E-3,184.00000000,,,,,-47.99999669E-3,-96.000000000,,,,,-47.99999669E-3,304.00000000,
,,,-47.95999825E-3,184.00000000,,,,,-47.95999825E-3,-104.0000000,,,,,-47.95999825E-3,308.00000000,
,,,-47.91999608E-3,186.00000000,,,,,-47.91999608E-3,-106.0000000,,,,,-47.91999608E-3,308.00000000,
,,,-47.87999764E-3,188.00000000,,,,,-47.87999764E-3,-106.0000000,,,,,-47.87999764E-3,312.00000000,
,,,-47.83999547E-3,188.00000000,,,,,-47.83999547E-3,-108.0000000,,,,,-47.83999547E-3,312.00000000,
,,,-47.79999703E-3,186.00000000,,,,,-47.79999703E-3,-110.0000000,,,,,-47.79999703E-3,316.00000000,
,,,-47.75999859E-3,184.00000000,,,,,-47.75999859E-3,-112.0000000,,,,,-47.75999859E-3,316.00000000,
,,,-47.71999642E-3,186.00000000,,,,,-47.71999642E-3,-118.0000000,,,,,-47.71999642E-3,316.00000000,
,,,-47.67999798E-3,186.00000000,,,,,-47.67999798E-3,-120.0000000,,,,,-47.67999798E-3,320.00000000,
,,,-47.63999581E-3,184.00000000,,,,,-47.63999581E-3,-120.0000000,,,,,-47.63999581E-3,320.00000000,
,,,-47.59999737E-3,184.00000000,,,,,-47.59999737E-3,-126.0000000,,,,,-47.59999737E-3,324.00000000,
,,,-47.55999893E-3,184.00000000,,,,,-47.55999893E-3,-130.0000000,,,,,-47.55999893E-3,324.00000000,
,,,-47.51999676E-3,184.00000000,,,,,-47.51999676E-3,-130.0000000,,,,,-47.51999676E-3,328.00000000,
,,,-47.47999832E-3,184.00000000,,,,,-47.47999832E-3,-130.0000000,,,,,-47.47999832E-3,328.00000000,
,,,-47.43999615E-3,184.00000000,,,,,-47.43999615E-3,-134.0000000,,,,,-47.43999615E-3,328.00000000,
,,,-47.39999771E-3,180.00000000,,,,,-47.39999771E-3,-136.0000000,,,,,-47.39999771E-3,328.00000000,
,,,-47.35999554E-3,180.00000000,,,,,-47.35999554E-3,-138.0000000,,,,,-47.35999554E-3,328.00000000,
,,,-47.31999710E-3,182.00000000,,,,,-47.31999710E-3,-142.0000000,,,,,-47.31999710E-3,328.00000000,
,,,-47.27999866E-3,182.00000000,,,,,-47.27999866E-3,-146.0000000,,,,,-47.27999866E-3,332.00000000,
,,,-47.23999649E-3,180.00000000,,,,,-47.23999649E-3,-148.0000000,,,,,-47.23999649E-3,328.00000000,
,,,-47.19999805E-3,178.00000000,,,,,-47.19999805E-3,-148.0000000,,,,,-47.19999805E-3,328.00000000,
,,,-47.15999588E-3,178.00000000,,,,,-47.15999588E-3,-152.00000000,,,,,-47.15999588E-3,328.00000000,
,,,-47.11999744E-3,174.00000000,,,,,-47.11999744E-3,-154.00000000,,,,,-47.11999744E-3,328.00000000,
,,,-47.07999527E-3,172.00000000,,,,,-47.07999527E-3,-156.00000000,,,,,-47.07999527E-3,332.00000000,
,,,-47.03999683E-3,172.00000000,,,,,-47.03999683E-3,-158.00000000,,,,,-47.03999683E-3,328.00000000,
,,,-46.99999839E-3,172.00000000,,,,,-46.99999839E-3,-160.00000000,,,,,-46.99999839E-3,328.00000000,
,,,-46.95999622E-3,172.00000000,,,,,-46.95999622E-3,-160.00000000,,,,,-46.95999622E-3,328.00000000,
,,,-46.91999778E-3,172.00000000,,,,,-46.91999778E-3,-160.00000000,,,,,-46.91999778E-3,328.00000000,
,,,-46.87999561E-3,172.00000000,,,,,-46.87999561E-3,-162.00000000,,,,,-46.87999561E-3,328.00000000,
,,,-46.83999717E-3,170.00000000,,,,,-46.83999717E-3,-164.00000000,,,,,-46.83999717E-3,328.00000000,
,,,-46.79999873E-3,170.00000000,,,,,-46.79999873E-3,-164.00000000,,,,,-46.79999873E-3,328.00000000,
,,,-46.75999656E-3,168.00000000,,,,,-46.75999656E-3,-164.00000000,,,,,-46.75999656E-3,328.00000000,
,,,-46.71999812E-3,166.00000000,,,,,-46.71999812E-3,-164.00000000,,,,,-46.71999812E-3,324.00000000,
,,,-46.67999595E-3,164.00000000,,,,,-46.67999595E-3,-166.00000000,,,,,-46.67999595E-3,324.00000000,
,,,-46.63999751E-3,162.00000000,,,,,-46.63999751E-3,-170.00000000,,,,,-46.63999751E-3,324.00000000,
,,,-46.59999534E-3,160.00000000,,,,,-46.59999534E-3,-170.00000000,,,,,-46.59999534E-3,324.00000000,
,,,-46.55999690E-3,158.00000000,,,,,-46.55999690E-3,-172.00000000,,,,,-46.55999690E-3,324.00000000,
,,,-46.51999846E-3,158.00000000,,,,,-46.51999846E-3,-172.00000000,,,,,-46.51999846E-3,320.00000000,
,,,-46.47999629E-3,158.00000000,,,,,-46.47999629E-3,-174.00000000,,,,,-46.47999629E-3,320.00000000,
,,,-46.43999785E-3,156.00000000,,,,,-46.43999785E-3,-174.00000000,,,,,-46.43999785E-3,320.00000000,
,,,-46.39999568E-3,154.00000000,,,,,-46.39999568E-3,-174.00000000,,,,,-46.39999568E-3,316.00000000,
,,,-46.35999724E-3,154.00000000,,,,,-46.35999724E-3,-176.00000000,,,,,-46.35999724E-3,316.00000000,
,,,-46.31999880E-3,152.00000000,,,,,-46.31999880E-3,-174.00000000,,,,,-46.31999880E-3,312.00000000,
,,,-46.27999663E-3,150.00000000,,,,,-46.27999663E-3,-176.00000000,,,,,-46.27999663E-3,312.00000000,
,,,-46.23999819E-3,150.00000000,,,,,-46.23999819E-3,-178.00000000,,,,,-46.23999819E-3,312.00000000,
,,,-46.19999602E-3,150.00000000,,,,,-46.19999602E-3,-178.00000000,,,,,-46.19999602E-3,308.00000000,
,,,-46.15999758E-3,148.0000000,,,,,-46.15999758E-3,-180.00000000,,,,,-46.15999758E-3,308.00000000,
,,,-46.11999542E-3,146.0000000,,,,,-46.11999542E-3,-178.00000000,,,,,-46.11999542E-3,304.00000000,
,,,-46.07999697E-3,142.0000000,,,,,-46.07999697E-3,-178.00000000,,,,,-46.07999697E-3,300.00000000,
,,,-46.03999853E-3,140.0000000,,,,,-46.03999853E-3,-180.00000000,,,,,-46.03999853E-3,300.00000000,
,,,-45.99999636E-3,138.0000000,,,,,-45.99999636E-3,-182.00000000,,,,,-45.99999636E-3,300.00000000,
,,,-45.95999792E-3,136.0000000,,,,,-45.95999792E-3,-182.00000000,,,,,-45.95999792E-3,296.00000000,
,,,-45.91999575E-3,136.0000000,,,,,-45.91999575E-3,-182.00000000,,,,,-45.91999575E-3,296.00000000,
,,,-45.87999731E-3,134.0000000,,,,,-45.87999731E-3,-184.00000000,,,,,-45.87999731E-3,292.00000000,
,,,-45.83999887E-3,132.0000000,,,,,-45.83999887E-3,-182.00000000,,,,,-45.83999887E-3,288.00000000,
,,,-45.79999670E-3,128.0000000,,,,,-45.79999670E-3,-184.00000000,,,,,-45.79999670E-3,288.00000000,
,,,-45.75999826E-3,126.0000000,,,,,-45.75999826E-3,-186.00000000,,,,,-45.75999826E-3,284.00000000,
,,,-45.71999609E-3,126.0000000,,,,,-45.71999609E-3,-186.00000000,,,,,-45.71999609E-3,280.00000000,
,,,-45.67999765E-3,122.0000000,,,,,-45.67999765E-3,-186.00000000,,,,,-45.67999765E-3,280.00000000,
,,,-45.63999549E-3,118.0000000,,,,,-45.63999549E-3,-186.00000000,,,,,-45.63999549E-3,280.00000000,
,,,-45.59999704E-3,116.0000000,,,,,-45.59999704E-3,-186.00000000,,,,,-45.59999704E-3,280.00000000,
,,,-45.55999860E-3,116.0000000,,,,,-45.55999860E-3,-184.00000000,,,,,-45.55999860E-3,284.00000000,
,,,-45.51999643E-3,110.0000000,,,,,-45.51999643E-3,-186.00000000,,,,,-45.51999643E-3,288.00000000,
,,,-45.47999799E-3,108.0000000,,,,,-45.47999799E-3,-186.00000000,,,,,-45.47999799E-3,292.00000000,
,,,-45.43999583E-3,106.0000000,,,,,-45.43999583E-3,-186.00000000,,,,,-45.43999583E-3,296.00000000,
,,,-45.39999738E-3,104.0000000,,,,,-45.39999738E-3,-188.00000000,,,,,-45.39999738E-3,296.00000000,
,,,-45.35999894E-3,100.0000000,,,,,-45.35999894E-3,-186.00000000,,,,,-45.35999894E-3,296.00000000,
,,,-45.31999677E-3,96.000000000,,,,,-45.31999677E-3,-186.00000000,,,,,-45.31999677E-3,300.00000000,
,,,-45.27999833E-3,94.000000000,,,,,-45.27999833E-3,-186.00000000,,,,,-45.27999833E-3,300.00000000,
,,,-45.23999617E-3,94.000000000,,,,,-45.23999617E-3,-186.00000000,,,,,-45.23999617E-3,308.00000000,
,,,-45.19999772E-3,98.000000000,,,,,-45.19999772E-3,-186.00000000,,,,,-45.19999772E-3,308.00000000,
,,,-45.15999556E-3,100.0000000,,,,,-45.15999556E-3,-186.00000000,,,,,-45.15999556E-3,308.00000000,
,,,-45.11999711E-3,100.0000000,,,,,-45.11999711E-3,-186.00000000,,,,,-45.11999711E-3,312.00000000,
,,,-45.07999867E-3,102.0000000,,,,,-45.07999867E-3,-184.00000000,,,,,-45.07999867E-3,312.00000000,
,,,-45.03999650E-3,108.0000000,,,,,-45.03999650E-3,-184.00000000,,,,,-45.03999650E-3,316.00000000,
,,,-44.99999806E-3,112.0000000,,,,,-44.99999806E-3,-184.00000000,,,,,-44.99999806E-3,316.00000000,
,,,-44.95999590E-3,114.0000000,,,,,-44.95999590E-3,-184.00000000,,,,,-44.95999590E-3,320.00000000,
,,,-44.91999745E-3,118.0000000,,,,,-44.91999745E-3,-186.00000000,,,,,-44.91999745E-3,320.00000000,
,,,-44.87999529E-3,122.0000000,,,,,-44.87999529E-3,-188.00000000,,,,,-44.87999529E-3,324.00000000,
,,,-44.83999684E-3,122.0000000,,,,,-44.83999684E-3,-184.00000000,,,,,-44.83999684E-3,324.00000000,
,,,-44.79999840E-3,124.0000000,,,,,-44.79999840E-3,-184.00000000,,,,,-44.79999840E-3,324.00000000,
,,,-44.75999624E-3,126.0000000,,,,,-44.75999624E-3,-184.00000000,,,,,-44.75999624E-3,324.00000000,
,,,-44.71999779E-3,128.0000000,,,,,-44.71999779E-3,-178.00000000,,,,,-44.71999779E-3,328.00000000,
,,,-44.67999563E-3,130.0000000,,,,,-44.67999563E-3,-180.00000000,,,,,-44.67999563E-3,328.00000000,
,,,-44.63999718E-3,132.0000000,,,,,-44.63999718E-3,-182.00000000,,,,,-44.63999718E-3,328.00000000,
,,,-44.59999874E-3,136.0000000,,,,,-44.59999874E-3,-182.00000000,,,,,-44.59999874E-3,328.00000000,
,,,-44.55999658E-3,138.0000000,,,,,-44.55999658E-3,-182.00000000,,,,,-44.55999658E-3,328.00000000,
,,,-44.51999813E-3,140.0000000,,,,,-44.51999813E-3,-180.00000000,,,,,-44.51999813E-3,328.00000000,
,,,-44.47999597E-3,142.0000000,,,,,-44.47999597E-3,-182.00000000,,,,,-44.47999597E-3,328.00000000,
,,,-44.43999752E-3,142.0000000,,,,,-44.43999752E-3,-178.00000000,,,,,-44.43999752E-3,328.00000000,
,,,-44.39999536E-3,142.0000000,,,,,-44.39999536E-3,-176.00000000,,,,,-44.39999536E-3,328.00000000,
,,,-44.35999691E-3,146.0000000,,,,,-44.35999691E-3,-174.00000000,,,,,-44.35999691E-3,328.00000000,
,,,-44.31999847E-3,150.00000000,,,,,-44.31999847E-3,-174.00000000,,,,,-44.31999847E-3,328.00000000,
,,,-44.27999631E-3,154.00000000,,,,,-44.27999631E-3,-174.00000000,,,,,-44.27999631E-3,328.00000000,
,,,-44.23999786E-3,156.00000000,,,,,-44.23999786E-3,-174.00000000,,,,,-44.23999786E-3,328.00000000,
,,,-44.19999570E-3,158.00000000,,,,,-44.19999570E-3,-172.00000000,,,,,-44.19999570E-3,332.00000000,
,,,-44.15999725E-3,160.00000000,,,,,-44.15999725E-3,-172.00000000,,,,,-44.15999725E-3,328.00000000,
,,,-44.11999881E-3,162.00000000,,,,,-44.11999881E-3,-172.00000000,,,,,-44.11999881E-3,332.00000000,
,,,-44.07999665E-3,160.00000000,,,,,-44.07999665E-3,-170.00000000,,,,,-44.07999665E-3,332.00000000,
,,,-44.03999820E-3,162.00000000,,,,,-44.03999820E-3,-168.00000000,,,,,-44.03999820E-3,328.00000000,
,,,-43.99999604E-3,160.00000000,,,,,-43.99999604E-3,-166.00000000,,,,,-43.99999604E-3,328.00000000,
,,,-43.95999759E-3,162.00000000,,,,,-43.95999759E-3,-164.00000000,,,,,-43.95999759E-3,328.00000000,
,,,-43.91999543E-3,162.00000000,,,,,-43.91999543E-3,-162.00000000,,,,,-43.91999543E-3,324.00000000,
,,,-43.87999699E-3,166.00000000,,,,,-43.87999699E-3,-160.00000000,,,,,-43.87999699E-3,324.00000000,
,,,-43.83999854E-3,168.00000000,,,,,-43.83999854E-3,-160.00000000,,,,,-43.83999854E-3,324.00000000,
,,,-43.79999638E-3,170.00000000,,,,,-43.79999638E-3,-160.00000000,,,,,-43.79999638E-3,324.00000000,
,,,-43.75999793E-3,174.00000000,,,,,-43.75999793E-3,-158.00000000,,,,,-43.75999793E-3,324.00000000,
,,,-43.71999577E-3,174.00000000,,,,,-43.71999577E-3,-158.00000000,,,,,-43.71999577E-3,320.00000000,
,,,-43.67999732E-3,176.00000000,,,,,-43.67999732E-3,-158.00000000,,,,,-43.67999732E-3,320.00000000,
,,,-43.63999888E-3,176.00000000,,,,,-43.63999888E-3,-158.00000000,,,,,-43.63999888E-3,316.00000000,
,,,-43.59999672E-3,176.00000000,,,,,-43.59999672E-3,-154.00000000,,,,,-43.59999672E-3,316.00000000,
,,,-43.55999827E-3,176.00000000,,,,,-43.55999827E-3,-150.00000000,,,,,-43.55999827E-3,316.00000000,
,,,-43.51999611E-3,176.00000000,,,,,-43.51999611E-3,-148.0000000,,,,,-43.51999611E-3,316.00000000,
,,,-43.47999766E-3,178.00000000,,,,,-43.47999766E-3,-148.0000000,,,,,-43.47999766E-3,312.00000000,
,,,-43.43999550E-3,176.00000000,,,,,-43.43999550E-3,-144.0000000,,,,,-43.43999550E-3,312.00000000,
,,,-43.39999706E-3,178.00000000,,,,,-43.39999706E-3,-142.0000000,,,,,-43.39999706E-3,308.00000000,
,,,-43.35999861E-3,180.00000000,,,,,-43.35999861E-3,-140.0000000,,,,,-43.35999861E-3,308.00000000,
,,,-43.31999645E-3,176.00000000,,,,,-43.31999645E-3,-138.0000000,,,,,-43.31999645E-3,304.00000000,
,,,-43.27999800E-3,180.00000000,,,,,-43.27999800E-3,-140.0000000,,,,,-43.27999800E-3,304.00000000,
,,,-43.23999584E-3,182.00000000,,,,,-43.23999584E-3,-138.0000000,,,,,-43.23999584E-3,300.00000000,
,,,-43.19999740E-3,182.00000000,,,,,-43.19999740E-3,-134.0000000,,,,,-43.19999740E-3,300.00000000,
,,,-43.15999895E-3,184.00000000,,,,,-43.15999895E-3,-130.0000000,,,,,-43.15999895E-3,300.00000000,
,,,-43.11999679E-3,184.00000000,,,,,-43.11999679E-3,-130.0000000,,,,,-43.11999679E-3,296.00000000,
,,,-43.07999834E-3,184.00000000,,,,,-43.07999834E-3,-126.0000000,,,,,-43.07999834E-3,292.00000000,
,,,-43.03999618E-3,182.00000000,,,,,-43.03999618E-3,-126.0000000,,,,,-43.03999618E-3,288.00000000,
,,,-42.99999774E-3,184.00000000,,,,,-42.99999774E-3,-126.0000000,,,,,-42.99999774E-3,288.00000000,
,,,-42.95999557E-3,182.00000000,,,,,-42.95999557E-3,-122.0000000,,,,,-42.95999557E-3,284.00000000,
,,,-42.91999713E-3,184.00000000,,,,,-42.91999713E-3,-118.0000000,,,,,-42.91999713E-3,280.00000000,
,,,-42.87999868E-3,184.00000000,,,,,-42.87999868E-3,-114.0000000,,,,,-42.87999868E-3,276.00000000,
,,,-42.83999652E-3,184.00000000,,,,,-42.83999652E-3,-114.0000000,,,,,-42.83999652E-3,280.00000000,
,,,-42.79999807E-3,186.00000000,,,,,-42.79999807E-3,-112.0000000,,,,,-42.79999807E-3,284.00000000,
,,,-42.75999591E-3,184.00000000,,,,,-42.75999591E-3,-110.0000000,,,,,-42.75999591E-3,284.00000000,
,,,-42.71999747E-3,182.00000000,,,,,-42.71999747E-3,-108.0000000,,,,,-42.71999747E-3,288.00000000,
,,,-42.67999902E-3,184.00000000,,,,,-42.67999902E-3,-104.0000000,,,,,-42.67999902E-3,292.00000000,
,,,-42.63999686E-3,190.00000000,,,,,-42.63999686E-3,-102.0000000,,,,,-42.63999686E-3,296.00000000,
,,,-42.59999841E-3,190.00000000,,,,,-42.59999841E-3,-100.0000000,,,,,-42.59999841E-3,300.00000000,
,,,-42.55999625E-3,186.00000000,,,,,-42.55999625E-3,-98.000000000,,,,,-42.55999625E-3,296.00000000,
,,,-42.51999781E-3,182.00000000,,,,,-42.51999781E-3,-92.000000000,,,,,-42.51999781E-3,304.00000000,
,,,-42.47999564E-3,184.00000000,,,,,-42.47999564E-3,-92.000000000,,,,,-42.47999564E-3,304.00000000,
,,,-42.43999720E-3,186.00000000,,,,,-42.43999720E-3,-98.000000000,,,,,-42.43999720E-3,304.00000000,
,,,-42.39999875E-3,186.00000000,,,,,-42.39999875E-3,-104.0000000,,,,,-42.39999875E-3,308.00000000,
,,,-42.35999659E-3,186.00000000,,,,,-42.35999659E-3,-104.0000000,,,,,-42.35999659E-3,308.00000000,
,,,-42.31999815E-3,186.00000000,,,,,-42.31999815E-3,-106.0000000,,,,,-42.31999815E-3,312.00000000,
