Exp1/dados/trifasico/Dados tensão no diodo 1.csv

Record Length,2500,Points,-54.39999700E-3,100.0000000,,Record Length,2500,Points,-54.39999700E-3,-188.00000000,,Record Length,2500,Points,-54.39999700E-3,280.00000000,
Sample Interval,39.99999899E-6,s,-54.35999855E-3,98.000000000,,Sample Interval,39.99999899E-6,s,-54.35999855E-3,-186.00000000,,Sample Interval,39.99999899E-6,s,-54.35999855E-3,280.00000000,
Trigger Point,1.3600000E3,Samples,-54.31999639E-3,94.000000000,,Trigger Point,1.3600000E3,Samples,-54.31999639E-3,-184.00000000,,Trigger Point,1.3600000E3,Samples,-54.31999639E-3,260.00000000,
,,,-54.27999794E-3,94.000000000,,,,,-54.27999794E-3,-184.00000000,,,,,-54.27999794E-3,280.00000000,
,,,-54.23999578E-3,98.000000000,,,,,-54.23999578E-3,-186.00000000,,,,,-54.23999578E-3,280.00000000,
,,,-54.19999734E-3,100.0000000,,,,,-54.19999734E-3,-188.00000000,,,,,-54.19999734E-3,280.00000000,
Source,CH1,,-54.15999517E-3,102.0000000,,Source,CH2,,-54.15999517E-3,-186.00000000,,Source,MATH,,-54.15999517E-3,280.00000000,
Vertical Units,Volts,,-54.11999673E-3,108.0000000,,Vertical Units,Volts,,-54.11999673E-3,-184.00000000,,Vertical Units,Volts,,-54.11999673E-3,280.00000000,
Vertical Scale,50.00000000,,-54.07999828E-3,110.0000000,,Vertical Scale,50.00000000,,-54.07999828E-3,-184.00000000,,Vertical Scale,500.000000000,,-54.07999828E-3,280.00000000,
Vertical Offset,0,,-54.03999612E-3,112.0000000,,Vertical Offset,0,,-54.03999612E-3,-186.00000000,,Vertical Offset,0,,-54.03999612E-3,280.00000000,
Horizontal Units,s,,-53.99999768E-3,112.0000000,,Horizontal Units,s,,-53.99999768E-3,-186.00000000,,Horizontal Units,s,,-53.99999768E-3,280.00000000,
Horizontal Scale,9.999999747E-3,,-53.95999551E-3,112.0000000,,Horizontal Scale,9.999999747E-3,,-53.95999551E-3,-186.00000000,,Horizontal Scale,9.999999747E-3,,-53.95999551E-3,280.00000000,
Pt Fmt,Y,,-53.91999707E-3,118.0000000,,Pt Fmt,Y,,-53.91999707E-3,-184.00000000,,Pt Fmt,Y,,-53.91999707E-3,300.00000000,
Yzero,0.0,,-53.87999862E-3,122.0000000,,Yzero,0.0,,-53.87999862E-3,-184.00000000,,Yzero,0.0,,-53.87999862E-3,300.00000000,
Probe Atten,10.0000000,,-53.83999646E-3,124.0000000,,Probe Atten,10.0000000,,-53.83999646E-3,-186.00000000,,,,,-53.83999646E-3,300.00000000,
,,,-53.79999802E-3,128.0000000,,,,,-53.79999802E-3,-188.00000000,,,,,-53.79999802E-3,300.00000000,
Note,TBS 1072B - 23:08:28   09/09/2016,,-53.75999585E-3,130.0000000,,Note,TBS 1072B - 23:08:28   09/09/2016,,-53.75999585E-3,-186.00000000,,Note,TBS 1072B - 23:08:28   09/09/2016,,-53.75999585E-3,300.00000000,
,,,-53.71999741E-3,130.0000000,,,,,-53.71999741E-3,-182.00000000,,,,,-53.71999741E-3,300.00000000,
,,,-53.67999524E-3,134.0000000,,,,,-53.67999524E-3,-182.00000000,,,,,-53.67999524E-3,300.00000000,
,,,-53.63999680E-3,138.0000000,,,,,-53.63999680E-3,-178.00000000,,,,,-53.63999680E-3,300.00000000,
,,,-53.59999835E-3,138.0000000,,,,,-53.59999835E-3,-178.00000000,,,,,-53.59999835E-3,320.00000000,
,,,-53.55999619E-3,140.0000000,,,,,-53.55999619E-3,-178.00000000,,,,,-53.55999619E-3,320.00000000,
,,,-53.51999775E-3,142.0000000,,,,,-53.51999775E-3,-180.00000000,,,,,-53.51999775E-3,320.00000000,
,,,-53.47999558E-3,144.0000000,,,,,-53.47999558E-3,-180.00000000,,,,,-53.47999558E-3,320.00000000,
,,,-53.43999714E-3,146.0000000,,,,,-53.43999714E-3,-180.00000000,,,,,-53.43999714E-3,320.00000000,
,,,-53.39999869E-3,150.00000000,,,,,-53.39999869E-3,-178.00000000,,,,,-53.39999869E-3,320.00000000,
,,,-53.35999653E-3,154.00000000,,,,,-53.35999653E-3,-176.00000000,,,,,-53.35999653E-3,320.00000000,
,,,-53.31999809E-3,156.00000000,,,,,-53.31999809E-3,-176.00000000,,,,,-53.31999809E-3,320.00000000,
,,,-53.27999592E-3,158.00000000,,,,,-53.27999592E-3,-174.00000000,,,,,-53.27999592E-3,320.00000000,
,,,-53.23999748E-3,158.00000000,,,,,-53.23999748E-3,-174.00000000,,,,,-53.23999748E-3,320.00000000,
,,,-53.19999531E-3,160.00000000,,,,,-53.19999531E-3,-172.00000000,,,,,-53.19999531E-3,320.00000000,
,,,-53.15999687E-3,160.00000000,,,,,-53.15999687E-3,-170.00000000,,,,,-53.15999687E-3,320.00000000,
,,,-53.11999843E-3,160.00000000,,,,,-53.11999843E-3,-168.00000000,,,,,-53.11999843E-3,320.00000000,
,,,-53.07999626E-3,160.00000000,,,,,-53.07999626E-3,-164.00000000,,,,,-53.07999626E-3,320.00000000,
,,,-53.03999782E-3,162.00000000,,,,,-53.03999782E-3,-164.00000000,,,,,-53.03999782E-3,320.00000000,
,,,-52.99999565E-3,166.00000000,,,,,-52.99999565E-3,-162.00000000,,,,,-52.99999565E-3,320.00000000,
,,,-52.95999721E-3,166.00000000,,,,,-52.95999721E-3,-160.00000000,,,,,-52.95999721E-3,320.00000000,
,,,-52.91999876E-3,168.00000000,,,,,-52.91999876E-3,-160.00000000,,,,,-52.91999876E-3,320.00000000,
,,,-52.87999660E-3,172.00000000,,,,,-52.87999660E-3,-160.00000000,,,,,-52.87999660E-3,320.00000000,
,,,-52.83999816E-3,172.00000000,,,,,-52.83999816E-3,-160.00000000,,,,,-52.83999816E-3,320.00000000,
,,,-52.79999599E-3,172.00000000,,,,,-52.79999599E-3,-160.00000000,,,,,-52.79999599E-3,320.00000000,
,,,-52.75999755E-3,172.00000000,,,,,-52.75999755E-3,-160.00000000,,,,,-52.75999755E-3,320.00000000,
,,,-52.71999538E-3,174.00000000,,,,,-52.71999538E-3,-158.00000000,,,,,-52.71999538E-3,320.00000000,
,,,-52.67999694E-3,170.00000000,,,,,-52.67999694E-3,-156.00000000,,,,,-52.67999694E-3,320.00000000,
,,,-52.63999850E-3,174.00000000,,,,,-52.63999850E-3,-154.00000000,,,,,-52.63999850E-3,320.00000000,
,,,-52.59999633E-3,174.00000000,,,,,-52.59999633E-3,-152.00000000,,,,,-52.59999633E-3,320.00000000,
,,,-52.55999789E-3,174.00000000,,,,,-52.55999789E-3,-150.00000000,,,,,-52.55999789E-3,320.00000000,
,,,-52.51999572E-3,176.00000000,,,,,-52.51999572E-3,-148.0000000,,,,,-52.51999572E-3,320.00000000,
,,,-52.47999728E-3,176.00000000,,,,,-52.47999728E-3,-148.0000000,,,,,-52.47999728E-3,320.00000000,
,,,-52.43999884E-3,176.00000000,,,,,-52.43999884E-3,-146.0000000,,,,,-52.43999884E-3,320.00000000,
,,,-52.39999667E-3,180.00000000,,,,,-52.39999667E-3,-146.0000000,,,,,-52.39999667E-3,320.00000000,
,,,-52.35999823E-3,180.00000000,,,,,-52.35999823E-3,-144.0000000,,,,,-52.35999823E-3,320.00000000,
,,,-52.31999606E-3,180.00000000,,,,,-52.31999606E-3,-140.0000000,,,,,-52.31999606E-3,320.00000000,
,,,-52.27999762E-3,182.00000000,,,,,-52.27999762E-3,-140.0000000,,,,,-52.27999762E-3,300.00000000,
,,,-52.23999545E-3,182.00000000,,,,,-52.23999545E-3,-136.0000000,,,,,-52.23999545E-3,300.00000000,
,,,-52.19999701E-3,184.00000000,,,,,-52.19999701E-3,-134.0000000,,,,,-52.19999701E-3,300.00000000,
,,,-52.15999857E-3,182.00000000,,,,,-52.15999857E-3,-134.0000000,,,,,-52.15999857E-3,300.00000000,
,,,-52.11999640E-3,182.00000000,,,,,-52.11999640E-3,-132.0000000,,,,,-52.11999640E-3,300.00000000,
,,,-52.07999796E-3,184.00000000,,,,,-52.07999796E-3,-132.0000000,,,,,-52.07999796E-3,300.00000000,
,,,-52.03999579E-3,184.00000000,,,,,-52.03999579E-3,-128.0000000,,,,,-52.03999579E-3,300.00000000,
,,,-51.99999735E-3,186.00000000,,,,,-51.99999735E-3,-126.0000000,,,,,-51.99999735E-3,300.00000000,
,,,-51.95999891E-3,186.00000000,,,,,-51.95999891E-3,-120.0000000,,,,,-51.95999891E-3,300.00000000,
,,,-51.91999674E-3,186.00000000,,,,,-51.91999674E-3,-118.0000000,,,,,-51.91999674E-3,300.00000000,
,,,-51.87999830E-3,188.00000000,,,,,-51.87999830E-3,-118.0000000,,,,,-51.87999830E-3,300.00000000,
,,,-51.83999613E-3,190.00000000,,,,,-51.83999613E-3,-118.0000000,,,,,-51.83999613E-3,280.00000000,
,,,-51.79999769E-3,186.00000000,,,,,-51.79999769E-3,-116.0000000,,,,,-51.79999769E-3,280.00000000,
,,,-51.75999552E-3,182.00000000,,,,,-51.75999552E-3,-110.0000000,,,,,-51.75999552E-3,280.00000000,
,,,-51.71999708E-3,184.00000000,,,,,-51.71999708E-3,-106.0000000,,,,,-51.71999708E-3,280.00000000,
,,,-51.67999864E-3,190.00000000,,,,,-51.67999864E-3,-102.0000000,,,,,-51.67999864E-3,280.00000000,
,,,-51.63999647E-3,192.00000000,,,,,-51.63999647E-3,-100.0000000,,,,,-51.63999647E-3,280.00000000,
,,,-51.59999803E-3,188.00000000,,,,,-51.59999803E-3,-98.000000000,,,,,-51.59999803E-3,280.00000000,
,,,-51.55999586E-3,184.00000000,,,,,-51.55999586E-3,-94.000000000,,,,,-51.55999586E-3,280.00000000,
,,,-51.51999742E-3,186.00000000,,,,,-51.51999742E-3,-92.000000000,,,,,-51.51999742E-3,260.00000000,
,,,-51.47999525E-3,188.00000000,,,,,-51.47999525E-3,-92.000000000,,,,,-51.47999525E-3,260.00000000,
,,,-51.43999681E-3,192.00000000,,,,,-51.43999681E-3,-90.000000000,,,,,-51.43999681E-3,260.00000000,
,,,-51.39999837E-3,188.00000000,,,,,-51.39999837E-3,-86.000000000,,,,,-51.39999837E-3,260.00000000,
,,,-51.35999620E-3,186.00000000,,,,,-51.35999620E-3,-80.000000000,,,,,-51.35999620E-3,260.00000000,
,,,-51.31999776E-3,184.00000000,,,,,-51.31999776E-3,-74.000000000,,,,,-51.31999776E-3,260.00000000,
,,,-51.27999559E-3,188.00000000,,,,,-51.27999559E-3,-76.000000000,,,,,-51.27999559E-3,260.00000000,
,,,-51.23999715E-3,186.00000000,,,,,-51.23999715E-3,-74.000000000,,,,,-51.23999715E-3,240.00000000,
,,,-51.19999871E-3,186.00000000,,,,,-51.19999871E-3,-72.000000000,,,,,-51.19999871E-3,240.00000000,
,,,-51.15999654E-3,186.00000000,,,,,-51.15999654E-3,-66.000000000,,,,,-51.15999654E-3,240.00000000,
,,,-51.11999810E-3,184.00000000,,,,,-51.11999810E-3,-62.000000000,,,,,-51.11999810E-3,240.00000000,
,,,-51.07999593E-3,184.00000000,,,,,-51.07999593E-3,-62.000000000,,,,,-51.07999593E-3,240.00000000,
,,,-51.03999749E-3,186.00000000,,,,,-51.03999749E-3,-60.000000000,,,,,-51.03999749E-3,240.00000000,
,,,-50.99999532E-3,184.00000000,,,,,-50.99999532E-3,-54.00000000,,,,,-50.99999532E-3,220.00000000,
,,,-50.95999688E-3,182.00000000,,,,,-50.95999688E-3,-54.00000000,,,,,-50.95999688E-3,220.00000000,
,,,-50.91999844E-3,182.00000000,,,,,-50.91999844E-3,-52.00000000,,,,,-50.91999844E-3,220.00000000,
,,,-50.87999627E-3,182.00000000,,,,,-50.87999627E-3,-46.00000000,,,,,-50.87999627E-3,220.00000000,
,,,-50.83999783E-3,182.00000000,,,,,-50.83999783E-3,-46.00000000,,,,,-50.83999783E-3,220.00000000,
,,,-50.79999566E-3,184.00000000,,,,,-50.79999566E-3,-42.00000000,,,,,-50.79999566E-3,220.00000000,
,,,-50.75999722E-3,182.00000000,,,,,-50.75999722E-3,-38.00000000,,,,,-50.75999722E-3,200.00000000,
,,,-50.71999878E-3,180.00000000,,,,,-50.71999878E-3,-38.00000000,,,,,-50.71999878E-3,200.00000000,
,,,-50.67999661E-3,180.00000000,,,,,-50.67999661E-3,-36.00000000,,,,,-50.67999661E-3,200.00000000,
,,,-50.63999817E-3,176.00000000,,,,,-50.63999817E-3,-32.00000000,,,,,-50.63999817E-3,200.00000000,
,,,-50.59999600E-3,176.00000000,,,,,-50.59999600E-3,-32.00000000,,,,,-50.59999600E-3,200.00000000,
,,,-50.55999756E-3,174.00000000,,,,,-50.55999756E-3,-26.00000000,,,,,-50.55999756E-3,180.00000000,
,,,-50.51999539E-3,174.00000000,,,,,-50.51999539E-3,-24.00000000,,,,,-50.51999539E-3,180.00000000,
,,,-50.47999695E-3,172.00000000,,,,,-50.47999695E-3,-18.0000000,,,,,-50.47999695E-3,180.00000000,
,,,-50.43999851E-3,172.00000000,,,,,-50.43999851E-3,-12.0000000,,,,,-50.43999851E-3,180.00000000,
,,,-50.39999634E-3,172.00000000,,,,,-50.39999634E-3,-12.0000000,,,,,-50.39999634E-3,180.00000000,
,,,-50.35999790E-3,172.00000000,,,,,-50.35999790E-3,-8.000000000,,,,,-50.35999790E-3,160.00000000,
,,,-50.31999573E-3,170.00000000,,,,,-50.31999573E-3,-8.000000000,,,,,-50.31999573E-3,160.00000000,
,,,-50.27999729E-3,168.00000000,,,,,-50.27999729E-3,-4.00000000,,,,,-50.27999729E-3,160.00000000,
,,,-50.23999885E-3,168.00000000,,,,,-50.23999885E-3,-2.0000000,,,,,-50.23999885E-3,160.00000000,
,,,-50.19999668E-3,166.00000000,,,,,-50.19999668E-3,2.0000000,,,,,-50.19999668E-3,160.00000000,
,,,-50.15999824E-3,164.00000000,,,,,-50.15999824E-3,6.00000000,,,,,-50.15999824E-3,140.0000000,
,,,-50.11999607E-3,162.00000000,,,,,-50.11999607E-3,8.000000000,,,,,-50.11999607E-3,140.0000000,
,,,-50.07999763E-3,162.00000000,,,,,-50.07999763E-3,10.0000000,,,,,-50.07999763E-3,140.0000000,
,,,-50.03999546E-3,158.00000000,,,,,-50.03999546E-3,12.0000000,,,,,-50.03999546E-3,140.0000000,
,,,-49.99999702E-3,158.00000000,,,,,-49.99999702E-3,16.0000000,,,,,-49.99999702E-3,140.0000000,
,,,-49.95999858E-3,158.00000000,,,,,-49.95999858E-3,18.0000000,,,,,-49.95999858E-3,120.0000000,
,,,-49.91999641E-3,156.00000000,,,,,-49.91999641E-3,20.0000000,,,,,-49.91999641E-3,120.0000000,
,,,-49.87999797E-3,154.00000000,,,,,-49.87999797E-3,22.00000000,,,,,-49.87999797E-3,120.0000000,
,,,-49.83999580E-3,154.00000000,,,,,-49.83999580E-3,24.00000000,,,,,-49.83999580E-3,120.0000000,
,,,-49.79999736E-3,152.00000000,,,,,-49.79999736E-3,26.00000000,,,,,-49.79999736E-3,120.0000000,
,,,-49.75999892E-3,150.00000000,,,,,-49.75999892E-3,28.00000000,,,,,-49.75999892E-3,100.0000000,
,,,-49.71999675E-3,150.00000000,,,,,-49.71999675E-3,30.00000000,,,,,-49.71999675E-3,100.0000000,
,,,-49.67999831E-3,148.0000000,,,,,-49.67999831E-3,34.00000000,,,,,-49.67999831E-3,100.0000000,
,,,-49.63999614E-3,146.0000000,,,,,-49.63999614E-3,36.00000000,,,,,-49.63999614E-3,100.0000000,
,,,-49.59999770E-3,144.0000000,,,,,-49.59999770E-3,38.00000000,,,,,-49.59999770E-3,100.0000000,
,,,-49.55999553E-3,142.0000000,,,,,-49.55999553E-3,42.00000000,,,,,-49.55999553E-3,80.000000000,
,,,-49.51999709E-3,140.0000000,,,,,-49.51999709E-3,44.00000000,,,,,-49.51999709E-3,80.000000000,
,,,-49.47999865E-3,136.0000000,,,,,-49.47999865E-3,46.00000000,,,,,-49.47999865E-3,80.000000000,
,,,-49.43999648E-3,138.0000000,,,,,-49.43999648E-3,48.00000000,,,,,-49.43999648E-3,80.000000000,
,,,-49.39999804E-3,138.0000000,,,,,-49.39999804E-3,50.00000000,,,,,-49.39999804E-3,80.000000000,
,,,-49.35999587E-3,132.0000000,,,,,-49.35999587E-3,52.00000000,,,,,-49.35999587E-3,60.000000000,
,,,-49.31999743E-3,128.0000000,,,,,-49.31999743E-3,54.00000000,,,,,-49.31999743E-3,60.000000000,
,,,-49.27999526E-3,128.0000000,,,,,-49.27999526E-3,58.000000000,,,,,-49.27999526E-3,60.000000000,
,,,-49.23999682E-3,128.0000000,,,,,-49.23999682E-3,60.000000000,,,,,-49.23999682E-3,60.000000000,
,,,-49.19999838E-3,122.0000000,,,,,-49.19999838E-3,62.000000000,,,,,-49.19999838E-3,40.00000000,
,,,-49.15999621E-3,120.0000000,,,,,-49.15999621E-3,68.000000000,,,,,-49.15999621E-3,40.00000000,
,,,-49.11999777E-3,118.0000000,,,,,-49.11999777E-3,70.000000000,,,,,-49.11999777E-3,40.00000000,
,,,-49.07999560E-3,116.0000000,,,,,-49.07999560E-3,72.000000000,,,,,-49.07999560E-3,40.00000000,
,,,-49.03999716E-3,110.0000000,,,,,-49.03999716E-3,74.000000000,,,,,-49.03999716E-3,20.0000000,
,,,-48.99999872E-3,108.0000000,,,,,-48.99999872E-3,78.000000000,,,,,-48.99999872E-3,20.0000000,
,,,-48.95999655E-3,108.0000000,,,,,-48.95999655E-3,78.000000000,,,,,-48.95999655E-3,20.0000000,
,,,-48.91999811E-3,108.0000000,,,,,-48.91999811E-3,82.000000000,,,,,-48.91999811E-3,20.0000000,
,,,-48.87999594E-3,102.0000000,,,,,-48.87999594E-3,86.000000000,,,,,-48.87999594E-3,0.0,
,,,-48.83999750E-3,98.000000000,,,,,-48.83999750E-3,86.000000000,,,,,-48.83999750E-3,0.0,
,,,-48.79999533E-3,96.000000000,,,,,-48.79999533E-3,88.000000000,,,,,-48.79999533E-3,0.0,
,,,-48.75999689E-3,94.000000000,,,,,-48.75999689E-3,94.000000000,,,,,-48.75999689E-3,-20.0000000,
,,,-48.71999845E-3,94.000000000,,,,,-48.71999845E-3,98.000000000,,,,,-48.71999845E-3,-20.0000000,
,,,-48.67999628E-3,96.000000000,,,,,-48.67999628E-3,98.000000000,,,,,-48.67999628E-3,-20.0000000,
,,,-48.63999784E-3,100.0000000,,,,,-48.63999784E-3,98.000000000,,,,,-48.63999784E-3,0.0,
,,,-48.59999567E-3,104.0000000,,,,,-48.59999567E-3,104.0000000,,,,,-48.59999567E-3,-20.0000000,
,,,-48.55999723E-3,108.0000000,,,,,-48.55999723E-3,106.0000000,,,,,-48.55999723E-3,0.0,
,,,-48.51999879E-3,112.0000000,,,,,-48.51999879E-3,108.0000000,,,,,-48.51999879E-3,-20.0000000,
,,,-48.47999662E-3,112.0000000,,,,,-48.47999662E-3,110.0000000,,,,,-48.47999662E-3,0.0,
,,,-48.43999818E-3,112.0000000,,,,,-48.43999818E-3,116.0000000,,,,,-48.43999818E-3,-20.0000000,
,,,-48.39999601E-3,116.0000000,,,,,-48.39999601E-3,120.0000000,,,,,-48.39999601E-3,0.0,
,,,-48.35999757E-3,118.0000000,,,,,-48.35999757E-3,118.0000000,,,,,-48.35999757E-3,-20.0000000,
,,,-48.31999540E-3,122.0000000,,,,,-48.31999540E-3,120.0000000,,,,,-48.31999540E-3,-20.0000000,
,,,-48.27999696E-3,124.0000000,,,,,-48.27999696E-3,126.0000000,,,,,-48.27999696E-3,-20.0000000,
,,,-48.23999852E-3,126.0000000,,,,,-48.23999852E-3,126.0000000,,,,,-48.23999852E-3,0.0,
,,,-48.19999635E-3,128.0000000,,,,,-48.19999635E-3,128.0000000,,,,,-48.19999635E-3,-20.0000000,
,,,-48.15999791E-3,128.0000000,,,,,-48.15999791E-3,136.0000000,,,,,-48.15999791E-3,-20.0000000,
,,,-48.11999574E-3,132.0000000,,,,,-48.11999574E-3,138.0000000,,,,,-48.11999574E-3,-20.0000000,
,,,-48.07999730E-3,138.0000000,,,,,-48.07999730E-3,136.0000000,,,,,-48.07999730E-3,0.0,
,,,-48.03999886E-3,138.0000000,,,,,-48.03999886E-3,138.0000000,,,,,-48.03999886E-3,-20.0000000,
,,,-47.99999669E-3,140.0000000,,,,,-47.99999669E-3,142.0000000,,,,,-47.99999669E-3,-20.0000000,
,,,-47.95999825E-3,142.0000000,,,,,-47.95999825E-3,142.0000000,,,,,-47.95999825E-3,0.0,
,,,-47.91999608E-3,146.0000000,,,,,-47.91999608E-3,146.0000000,,,,,-47.91999608E-3,-20.0000000,
,,,-47.87999764E-3,146.0000000,,,,,-47.87999764E-3,150.00000000,,,,,-47.87999764E-3,-20.0000000,
,,,-47.83999547E-3,150.00000000,,,,,-47.83999547E-3,152.00000000,,,,,-47.83999547E-3,-20.0000000,
,,,-47.79999703E-3,150.00000000,,,,,-47.79999703E-3,156.00000000,,,,,-47.79999703E-3,0.0,
,,,-47.75999859E-3,154.00000000,,,,,-47.75999859E-3,156.00000000,,,,,-47.75999859E-3,-20.0000000,
,,,-47.71999642E-3,156.00000000,,,,,-47.71999642E-3,156.00000000,,,,,-47.71999642E-3,-20.0000000,
,,,-47.67999798E-3,158.00000000,,,,,-47.67999798E-3,158.00000000,,,,,-47.67999798E-3,-20.0000000,
,,,-47.63999581E-3,160.00000000,,,,,-47.63999581E-3,162.00000000,,,,,-47.63999581E-3,0.0,
,,,-47.59999737E-3,158.00000000,,,,,-47.59999737E-3,162.00000000,,,,,-47.59999737E-3,0.0,
,,,-47.55999893E-3,160.00000000,,,,,-47.55999893E-3,162.00000000,,,,,-47.55999893E-3,-20.0000000,
,,,-47.51999676E-3,160.00000000,,,,,-47.51999676E-3,166.00000000,,,,,-47.51999676E-3,0.0,
,,,-47.47999832E-3,160.00000000,,,,,-47.47999832E-3,168.00000000,,,,,-47.47999832E-3,-20.0000000,
,,,-47.43999615E-3,164.00000000,,,,,-47.43999615E-3,168.00000000,,,,,-47.43999615E-3,-20.0000000,
,,,-47.39999771E-3,162.00000000,,,,,-47.39999771E-3,170.00000000,,,,,-47.39999771E-3,-20.0000000,
,,,-47.35999554E-3,168.00000000,,,,,-47.35999554E-3,170.00000000,,,,,-47.35999554E-3,-20.0000000,
,,,-47.31999710E-3,170.00000000,,,,,-47.31999710E-3,168.00000000,,,,,-47.31999710E-3,-20.0000000,
,,,-47.27999866E-3,174.00000000,,,,,-47.27999866E-3,170.00000000,,,,,-47.27999866E-3,-20.0000000,
,,,-47.23999649E-3,176.00000000,,,,,-47.23999649E-3,170.00000000,,,,,-47.23999649E-3,0.0,
,,,-47.19999805E-3,176.00000000,,,,,-47.19999805E-3,170.00000000,,,,,-47.19999805E-3,-20.0000000,
,,,-47.15999588E-3,176.00000000,,,,,-47.15999588E-3,174.00000000,,,,,-47.15999588E-3,0.0,
,,,-47.11999744E-3,176.00000000,,,,,-47.11999744E-3,174.00000000,,,,,-47.11999744E-3,-20.0000000,
,,,-47.07999900E-3,176.00000000,,,,,-47.07999900E-3,172.00000000,,,,,-47.07999900E-3,0.0,
,,,-47.03999683E-3,176.00000000,,,,,-47.03999683E-3,174.00000000,,,,,-47.03999683E-3,-20.0000000,
,,,-46.99999839E-3,176.00000000,,,,,-46.99999839E-3,174.00000000,,,,,-46.99999839E-3,0.0,
,,,-46.95999622E-3,176.00000000,,,,,-46.95999622E-3,174.00000000,,,,,-46.95999622E-3,-20.0000000,
,,,-46.91999778E-3,178.00000000,,,,,-46.91999778E-3,180.00000000,,,,,-46.91999778E-3,-20.0000000,
,,,-46.87999561E-3,178.00000000,,,,,-46.87999561E-3,178.00000000,,,,,-46.87999561E-3,0.0,
,,,-46.83999717E-3,180.00000000,,,,,-46.83999717E-3,180.00000000,,,,,-46.83999717E-3,-20.0000000,
,,,-46.79999873E-3,180.00000000,,,,,-46.79999873E-3,180.00000000,,,,,-46.79999873E-3,0.0,
,,,-46.75999656E-3,180.00000000,,,,,-46.75999656E-3,180.00000000,,,,,-46.75999656E-3,0.0,
,,,-46.71999812E-3,182.00000000,,,,,-46.71999812E-3,180.00000000,,,,,-46.71999812E-3,-20.0000000,
,,,-46.67999595E-3,180.00000000,,,,,-46.67999595E-3,182.00000000,,,,,-46.67999595E-3,-20.0000000,
,,,-46.63999751E-3,180.00000000,,,,,-46.63999751E-3,184.00000000,,,,,-46.63999751E-3,-20.0000000,
,,,-46.59999534E-3,184.00000000,,,,,-46.59999534E-3,182.00000000,,,,,-46.59999534E-3,-20.0000000,
,,,-46.55999690E-3,184.00000000,,,,,-46.55999690E-3,184.00000000,,,,,-46.55999690E-3,-20.0000000,
