Exp1/dados/monofasico/Dados tensão nos diodos d3 d6.csv

Record Length,2500,Points,-51.19999871E-3,0.0,,Record Length,2500,Points,-51.19999871E-3,132.0000000,
Sample Interval,39.99999899E-6,s,-51.16000026E-3,0.0,,Sample Interval,39.99999899E-6,s,-51.16000026E-3,128.0000000,
Trigger Point,1.2800001E3,Samples,-51.11999810E-3,0.0,,Trigger Point,1.2800001E3,Samples,-51.11999810E-3,126.0000000,
,,,-51.07999966E-3,0.0,,,,,-51.07999966E-3,124.0000000,
,,,-51.03999749E-3,0.0,,,,,-51.03999749E-3,124.0000000,
,,,-50.99999905E-3,0.0,,,,,-50.99999905E-3,122.0000000,
Source,CH1,,-50.95999688E-3,0.0,,Source,CH2,,-50.95999688E-3,120.0000000,
Vertical Units,Volts,,-50.91999844E-3,0.0,,Vertical Units,Volts,,-50.91999844E-3,118.0000000,
Vertical Scale,50.00000000,,-50.88000000E-3,0.0,,Vertical Scale,50.00000000,,-50.88000000E-3,116.0000000,
Vertical Offset,0,,-50.83999783E-3,0.0,,Vertical Offset,0,,-50.83999783E-3,114.0000000,
Horizontal Units,s,,-50.79999939E-3,-2.0000000,,Horizontal Units,s,,-50.79999939E-3,110.0000000,
Horizontal Scale,9.999999747E-3,,-50.75999722E-3,0.0,,Horizontal Scale,9.999999747E-3,,-50.75999722E-3,108.0000000,
Pt Fmt,Y,,-50.71999878E-3,0.0,,Pt Fmt,Y,,-50.71999878E-3,104.0000000,
Yzero,-600.000000000E-3,,-50.68000033E-3,0.0,,Yzero,-600.000000000E-3,,-50.68000033E-3,100.0000000,
Probe Atten,10.0000000,,-50.63999817E-3,0.0,,Probe Atten,10.0000000,,-50.63999817E-3,100.0000000,
,,,-50.59999973E-3,0.0,,,,,-50.59999973E-3,96.000000000,
Note,TBS 1072B - 22:42:57   09/09/2016,,-50.55999756E-3,0.0,,Note,TBS 1072B - 22:42:57   09/09/2016,,-50.55999756E-3,94.000000000,
,,,-50.51999912E-3,0.0,,,,,-50.51999912E-3,90.000000000,
,,,-50.47999695E-3,-2.0000000,,,,,-50.47999695E-3,86.000000000,
,,,-50.43999851E-3,0.0,,,,,-50.43999851E-3,84.000000000,
,,,-50.40000007E-3,0.0,,,,,-50.40000007E-3,84.000000000,
,,,-50.35999790E-3,0.0,,,,,-50.35999790E-3,78.000000000,
,,,-50.31999946E-3,0.0,,,,,-50.31999946E-3,76.000000000,
,,,-50.27999729E-3,0.0,,,,,-50.27999729E-3,76.000000000,
,,,-50.23999885E-3,0.0,,,,,-50.23999885E-3,74.000000000,
,,,-50.20000041E-3,0.0,,,,,-50.20000041E-3,68.000000000,
,,,-50.15999824E-3,0.0,,,,,-50.15999824E-3,66.000000000,
,,,-50.11999980E-3,0.0,,,,,-50.11999980E-3,62.000000000,
,,,-50.07999763E-3,0.0,,,,,-50.07999763E-3,58.000000000,
,,,-50.03999919E-3,-2.0000000,,,,,-50.03999919E-3,56.000000000,
,,,-49.99999702E-3,0.0,,,,,-49.99999702E-3,52.00000000,
,,,-49.95999858E-3,0.0,,,,,-49.95999858E-3,52.00000000,
,,,-49.92000014E-3,0.0,,,,,-49.92000014E-3,50.00000000,
,,,-49.87999797E-3,0.0,,,,,-49.87999797E-3,46.00000000,
,,,-49.83999953E-3,0.0,,,,,-49.83999953E-3,44.00000000,
,,,-49.79999736E-3,0.0,,,,,-49.79999736E-3,42.00000000,
,,,-49.75999892E-3,0.0,,,,,-49.75999892E-3,34.00000000,
,,,-49.72000048E-3,0.0,,,,,-49.72000048E-3,30.00000000,
,,,-49.67999831E-3,0.0,,,,,-49.67999831E-3,28.00000000,
,,,-49.63999987E-3,0.0,,,,,-49.63999987E-3,26.00000000,
,,,-49.59999770E-3,0.0,,,,,-49.59999770E-3,22.00000000,
,,,-49.55999926E-3,0.0,,,,,-49.55999926E-3,20.0000000,
,,,-49.51999709E-3,0.0,,,,,-49.51999709E-3,18.0000000,
,,,-49.47999865E-3,0.0,,,,,-49.47999865E-3,14.0000000,
,,,-49.44000021E-3,-2.0000000,,,,,-49.44000021E-3,14.0000000,
,,,-49.39999804E-3,0.0,,,,,-49.39999804E-3,10.0000000,
,,,-49.35999960E-3,0.0,,,,,-49.35999960E-3,8.000000000,
,,,-49.31999743E-3,0.0,,,,,-49.31999743E-3,4.00000000,
,,,-49.27999899E-3,0.0,,,,,-49.27999899E-3,0.0,
,,,-49.24000055E-3,0.0,,,,,-49.24000055E-3,-2.0000000,
,,,-49.19999838E-3,2.0000000,,,,,-49.19999838E-3,-2.0000000,
,,,-49.15999994E-3,4.00000000,,,,,-49.15999994E-3,-4.00000000,
,,,-49.11999777E-3,6.00000000,,,,,-49.11999777E-3,-2.0000000,
,,,-49.07999933E-3,8.000000000,,,,,-49.07999933E-3,-2.0000000,
,,,-49.03999716E-3,12.0000000,,,,,-49.03999716E-3,-2.0000000,
,,,-48.99999872E-3,12.0000000,,,,,-48.99999872E-3,-4.00000000,
,,,-48.96000028E-3,14.0000000,,,,,-48.96000028E-3,-2.0000000,
,,,-48.91999811E-3,16.0000000,,,,,-48.91999811E-3,-4.00000000,
,,,-48.87999967E-3,18.0000000,,,,,-48.87999967E-3,-4.00000000,
,,,-48.83999750E-3,20.0000000,,,,,-48.83999750E-3,-4.00000000,
,,,-48.79999906E-3,24.00000000,,,,,-48.79999906E-3,-4.00000000,
,,,-48.76000062E-3,28.00000000,,,,,-48.76000062E-3,-4.00000000,
,,,-48.71999845E-3,32.00000000,,,,,-48.71999845E-3,-2.0000000,
,,,-48.68000001E-3,34.00000000,,,,,-48.68000001E-3,-4.00000000,
,,,-48.63999784E-3,36.00000000,,,,,-48.63999784E-3,-4.00000000,
,,,-48.59999940E-3,40.00000000,,,,,-48.59999940E-3,-2.0000000,
,,,-48.55999723E-3,40.00000000,,,,,-48.55999723E-3,-2.0000000,
,,,-48.51999879E-3,44.00000000,,,,,-48.51999879E-3,-4.00000000,
,,,-48.48000035E-3,48.00000000,,,,,-48.48000035E-3,-2.0000000,
,,,-48.43999818E-3,48.00000000,,,,,-48.43999818E-3,-4.00000000,
,,,-48.39999974E-3,48.00000000,,,,,-48.39999974E-3,-2.0000000,
,,,-48.35999757E-3,52.00000000,,,,,-48.35999757E-3,-4.00000000,
,,,-48.31999913E-3,50.00000000,,,,,-48.31999913E-3,-2.0000000,
,,,-48.27999696E-3,54.00000000,,,,,-48.27999696E-3,-2.0000000,
,,,-48.23999852E-3,58.000000000,,,,,-48.23999852E-3,-4.00000000,
,,,-48.20000008E-3,64.000000000,,,,,-48.20000008E-3,-4.00000000,
,,,-48.15999791E-3,68.000000000,,,,,-48.15999791E-3,-2.0000000,
,,,-48.11999947E-3,72.000000000,,,,,-48.11999947E-3,-2.0000000,
,,,-48.07999730E-3,72.000000000,,,,,-48.07999730E-3,-4.00000000,
,,,-48.03999886E-3,72.000000000,,,,,-48.03999886E-3,-2.0000000,
,,,-48.00000042E-3,74.000000000,,,,,-48.00000042E-3,-2.0000000,
,,,-47.95999825E-3,78.000000000,,,,,-47.95999825E-3,-4.00000000,
,,,-47.91999981E-3,80.000000000,,,,,-47.91999981E-3,-2.0000000,
,,,-47.87999764E-3,82.000000000,,,,,-47.87999764E-3,-4.00000000,
,,,-47.83999920E-3,86.000000000,,,,,-47.83999920E-3,-4.00000000,
,,,-47.79999703E-3,92.000000000,,,,,-47.79999703E-3,-4.00000000,
,,,-47.75999859E-3,92.000000000,,,,,-47.75999859E-3,-4.00000000,
,,,-47.72000015E-3,92.000000000,,,,,-47.72000015E-3,-4.00000000,
,,,-47.67999798E-3,96.000000000,,,,,-47.67999798E-3,-2.0000000,
,,,-47.63999954E-3,100.0000000,,,,,-47.63999954E-3,-2.0000000,
,,,-47.59999737E-3,102.0000000,,,,,-47.59999737E-3,-2.0000000,
,,,-47.55999893E-3,104.0000000,,,,,-47.55999893E-3,-4.00000000,
,,,-47.52000049E-3,108.0000000,,,,,-47.52000049E-3,-2.0000000,
,,,-47.47999832E-3,110.0000000,,,,,-47.47999832E-3,-4.00000000,
,,,-47.43999988E-3,114.0000000,,,,,-47.43999988E-3,-4.00000000,
,,,-47.39999771E-3,114.0000000,,,,,-47.39999771E-3,-2.0000000,
,,,-47.35999927E-3,116.0000000,,,,,-47.35999927E-3,-4.00000000,
,,,-47.31999710E-3,120.0000000,,,,,-47.31999710E-3,-4.00000000,
,,,-47.27999866E-3,124.0000000,,,,,-47.27999866E-3,-4.00000000,
,,,-47.24000022E-3,126.0000000,,,,,-47.24000022E-3,-4.00000000,
,,,-47.19999805E-3,130.0000000,,,,,-47.19999805E-3,-4.00000000,
,,,-47.15999961E-3,132.0000000,,,,,-47.15999961E-3,-4.00000000,
,,,-47.11999744E-3,134.0000000,,,,,-47.11999744E-3,-4.00000000,
,,,-47.07999900E-3,134.0000000,,,,,-47.07999900E-3,-4.00000000,
,,,-47.04000056E-3,136.0000000,,,,,-47.04000056E-3,-4.00000000,
,,,-46.99999839E-3,136.0000000,,,,,-46.99999839E-3,-4.00000000,
,,,-46.95999995E-3,138.0000000,,,,,-46.95999995E-3,-4.00000000,
,,,-46.91999778E-3,142.0000000,,,,,-46.91999778E-3,-4.00000000,
,,,-46.87999934E-3,146.0000000,,,,,-46.87999934E-3,-4.00000000,
,,,-46.83999717E-3,150.00000000,,,,,-46.83999717E-3,-4.00000000,
,,,-46.79999873E-3,154.00000000,,,,,-46.79999873E-3,-4.00000000,
,,,-46.76000029E-3,156.00000000,,,,,-46.76000029E-3,-2.0000000,
,,,-46.71999812E-3,156.00000000,,,,,-46.71999812E-3,-4.00000000,
,,,-46.67999968E-3,158.00000000,,,,,-46.67999968E-3,-4.00000000,
,,,-46.63999751E-3,158.00000000,,,,,-46.63999751E-3,-4.00000000,
,,,-46.59999907E-3,160.00000000,,,,,-46.59999907E-3,-4.00000000,
,,,-46.56000063E-3,162.00000000,,,,,-46.56000063E-3,-4.00000000,
,,,-46.51999846E-3,162.00000000,,,,,-46.51999846E-3,-4.00000000,
,,,-46.48000002E-3,166.00000000,,,,,-46.48000002E-3,-2.0000000,
,,,-46.43999785E-3,166.00000000,,,,,-46.43999785E-3,-2.0000000,
,,,-46.39999941E-3,168.00000000,,,,,-46.39999941E-3,-4.00000000,
,,,-46.35999724E-3,168.00000000,,,,,-46.35999724E-3,-4.00000000,
,,,-46.31999880E-3,166.00000000,,,,,-46.31999880E-3,-2.0000000,
,,,-46.28000036E-3,166.00000000,,,,,-46.28000036E-3,-4.00000000,
,,,-46.23999819E-3,168.00000000,,,,,-46.23999819E-3,-4.00000000,
,,,-46.19999975E-3,170.00000000,,,,,-46.19999975E-3,-4.00000000,
,,,-46.15999758E-3,174.00000000,,,,,-46.15999758E-3,-4.00000000,
,,,-46.11999914E-3,176.00000000,,,,,-46.11999914E-3,-4.00000000,
,,,-46.08000070E-3,176.00000000,,,,,-46.08000070E-3,-4.00000000,
,,,-46.03999853E-3,176.00000000,,,,,-46.03999853E-3,-4.00000000,
,,,-46.00000009E-3,176.00000000,,,,,-46.00000009E-3,-2.0000000,
,,,-45.95999792E-3,176.00000000,,,,,-45.95999792E-3,-4.00000000,
,,,-45.91999948E-3,176.00000000,,,,,-45.91999948E-3,-4.00000000,
,,,-45.87999731E-3,176.00000000,,,,,-45.87999731E-3,-2.0000000,
,,,-45.83999887E-3,178.00000000,,,,,-45.83999887E-3,-4.00000000,
,,,-45.80000043E-3,178.00000000,,,,,-45.80000043E-3,-4.00000000,
,,,-45.75999826E-3,178.00000000,,,,,-45.75999826E-3,-2.0000000,
,,,-45.71999982E-3,180.00000000,,,,,-45.71999982E-3,-4.00000000,
,,,-45.67999765E-3,180.00000000,,,,,-45.67999765E-3,-4.00000000,
,,,-45.63999921E-3,182.00000000,,,,,-45.63999921E-3,-4.00000000,
,,,-45.59999704E-3,184.00000000,,,,,-45.59999704E-3,-4.00000000,
,,,-45.55999860E-3,184.00000000,,,,,-45.55999860E-3,-4.00000000,
,,,-45.52000016E-3,182.00000000,,,,,-45.52000016E-3,-4.00000000,
,,,-45.47999799E-3,182.00000000,,,,,-45.47999799E-3,-4.00000000,
,,,-45.43999955E-3,184.00000000,,,,,-45.43999955E-3,-4.00000000,
,,,-45.39999738E-3,184.00000000,,,,,-45.39999738E-3,-4.00000000,
,,,-45.35999894E-3,184.00000000,,,,,-45.35999894E-3,-4.00000000,
,,,-45.32000050E-3,186.00000000,,,,,-45.32000050E-3,-4.00000000,
,,,-45.27999833E-3,186.00000000,,,,,-45.27999833E-3,-4.00000000,
,,,-45.23999989E-3,186.00000000,,,,,-45.23999989E-3,-2.0000000,
,,,-45.19999772E-3,184.00000000,,,,,-45.19999772E-3,-4.00000000,
,,,-45.15999928E-3,186.00000000,,,,,-45.15999928E-3,-4.00000000,
,,,-45.11999711E-3,186.00000000,,,,,-45.11999711E-3,-4.00000000,
,,,-45.07999867E-3,188.00000000,,,,,-45.07999867E-3,-4.00000000,
,,,-45.04000023E-3,186.00000000,,,,,-45.04000023E-3,-2.0000000,
,,,-44.99999806E-3,188.00000000,,,,,-44.99999806E-3,-4.00000000,
,,,-44.95999962E-3,186.00000000,,,,,-44.95999962E-3,-4.00000000,
,,,-44.91999745E-3,186.00000000,,,,,-44.91999745E-3,-4.00000000,
,,,-44.87999901E-3,186.00000000,,,,,-44.87999901E-3,-4.00000000,
,,,-44.84000057E-3,188.00000000,,,,,-44.84000057E-3,-4.00000000,
,,,-44.79999840E-3,190.00000000,,,,,-44.79999840E-3,-4.00000000,
,,,-44.75999996E-3,188.00000000,,,,,-44.75999996E-3,-4.00000000,
,,,-44.71999779E-3,186.00000000,,,,,-44.71999779E-3,-4.00000000,
,,,-44.67999935E-3,184.00000000,,,,,-44.67999935E-3,-2.0000000,
,,,-44.63999718E-3,182.00000000,,,,,-44.63999718E-3,-4.00000000,
,,,-44.59999874E-3,182.00000000,,,,,-44.59999874E-3,-4.00000000,
,,,-44.56000030E-3,186.00000000,,,,,-44.56000030E-3,-4.00000000,
,,,-44.51999813E-3,188.00000000,,,,,-44.51999813E-3,-2.0000000,
,,,-44.47999969E-3,190.00000000,,,,,-44.47999969E-3,-4.00000000,
,,,-44.43999752E-3,188.00000000,,,,,-44.43999752E-3,-4.00000000,
,,,-44.39999908E-3,184.00000000,,,,,-44.39999908E-3,-4.00000000,
,,,-44.36000064E-3,182.00000000,,,,,-44.36000064E-3,-4.00000000,
,,,-44.31999847E-3,180.00000000,,,,,-44.31999847E-3,-4.00000000,
,,,-44.28000003E-3,180.00000000,,,,,-44.28000003E-3,-4.00000000,
,,,-44.23999786E-3,180.00000000,,,,,-44.23999786E-3,-4.00000000,
,,,-44.19999942E-3,180.00000000,,,,,-44.19999942E-3,-4.00000000,
,,,-44.15999725E-3,180.00000000,,,,,-44.15999725E-3,-4.00000000,
,,,-44.11999881E-3,180.00000000,,,,,-44.11999881E-3,-2.0000000,
,,,-44.08000037E-3,180.00000000,,,,,-44.08000037E-3,-2.0000000,
,,,-44.03999820E-3,178.00000000,,,,,-44.03999820E-3,-2.0000000,
,,,-43.99999976E-3,176.00000000,,,,,-43.99999976E-3,-4.00000000,
,,,-43.95999759E-3,174.00000000,,,,,-43.95999759E-3,-4.00000000,
,,,-43.91999915E-3,172.00000000,,,,,-43.91999915E-3,-2.0000000,
,,,-43.88000071E-3,174.00000000,,,,,-43.88000071E-3,-4.00000000,
,,,-43.83999854E-3,172.00000000,,,,,-43.83999854E-3,-2.0000000,
,,,-43.80000010E-3,170.00000000,,,,,-43.80000010E-3,-4.00000000,
,,,-43.75999793E-3,168.00000000,,,,,-43.75999793E-3,-4.00000000,
,,,-43.71999949E-3,166.00000000,,,,,-43.71999949E-3,-4.00000000,
,,,-43.67999732E-3,164.00000000,,,,,-43.67999732E-3,-4.00000000,
,,,-43.63999888E-3,162.00000000,,,,,-43.63999888E-3,-4.00000000,
,,,-43.60000044E-3,162.00000000,,,,,-43.60000044E-3,-4.00000000,
,,,-43.55999827E-3,162.00000000,,,,,-43.55999827E-3,-2.0000000,
,,,-43.51999983E-3,162.00000000,,,,,-43.51999983E-3,-4.00000000,
,,,-43.47999766E-3,160.00000000,,,,,-43.47999766E-3,-4.00000000,
,,,-43.43999922E-3,160.00000000,,,,,-43.43999922E-3,-4.00000000,
,,,-43.39999706E-3,158.00000000,,,,,-43.39999706E-3,-4.00000000,
,,,-43.35999861E-3,156.00000000,,,,,-43.35999861E-3,-4.00000000,
,,,-43.32000017E-3,154.00000000,,,,,-43.32000017E-3,-4.00000000,
,,,-43.27999800E-3,152.00000000,,,,,-43.27999800E-3,-4.00000000,
,,,-43.23999956E-3,152.00000000,,,,,-43.23999956E-3,-4.00000000,
,,,-43.19999740E-3,150.00000000,,,,,-43.19999740E-3,-4.00000000,
,,,-43.15999895E-3,148.0000000,,,,,-43.15999895E-3,-4.00000000,
,,,-43.12000051E-3,148.0000000,,,,,-43.12000051E-3,-2.0000000,
,,,-43.07999834E-3,144.0000000,,,,,-43.07999834E-3,-4.00000000,
,,,-43.03999990E-3,140.0000000,,,,,-43.03999990E-3,-4.00000000,
,,,-42.99999774E-3,140.0000000,,,,,-42.99999774E-3,-4.00000000,
,,,-42.95999929E-3,138.0000000,,,,,-42.95999929E-3,-4.00000000,
,,,-42.91999713E-3,136.0000000,,,,,-42.91999713E-3,-4.00000000,
,,,-42.87999868E-3,136.0000000,,,,,-42.87999868E-3,-4.00000000,
,,,-42.84000024E-3,136.0000000,,,,,-42.84000024E-3,-4.00000000,
,,,-42.79999807E-3,132.0000000,,,,,-42.79999807E-3,-2.0000000,
,,,-42.75999963E-3,130.0000000,,,,,-42.75999963E-3,-4.00000000,
,,,-42.71999747E-3,128.0000000,,,,,-42.71999747E-3,-4.00000000,
,,,-42.67999902E-3,126.0000000,,,,,-42.67999902E-3,-4.00000000,
,,,-42.64000058E-3,124.0000000,,,,,-42.64000058E-3,-4.00000000,
,,,-42.59999841E-3,120.0000000,,,,,-42.59999841E-3,-4.00000000,
,,,-42.55999997E-3,118.0000000,,,,,-42.55999997E-3,-4.00000000,
,,,-42.51999781E-3,116.0000000,,,,,-42.51999781E-3,-4.00000000,
,,,-42.47999936E-3,112.0000000,,,,,-42.47999936E-3,-4.00000000,
,,,-42.43999720E-3,112.0000000,,,,,-42.43999720E-3,-4.00000000,
,,,-42.39999875E-3,108.0000000,,,,,-42.39999875E-3,-4.00000000,
,,,-42.36000031E-3,108.0000000,,,,,-42.36000031E-3,-4.00000000,
,,,-42.31999815E-3,102.0000000,,,,,-42.31999815E-3,-2.0000000,
,,,-42.27999970E-3,98.000000000,,,,,-42.27999970E-3,-2.0000000,
,,,-42.23999754E-3,98.000000000,,,,,-42.23999754E-3,-4.00000000,
,,,-42.19999909E-3,96.000000000,,,,,-42.19999909E-3,-4.00000000,
,,,-42.16000065E-3,92.000000000,,,,,-42.16000065E-3,-4.00000000,
,,,-42.11999848E-3,88.000000000,,,,,-42.11999848E-3,-4.00000000,
,,,-42.08000004E-3,84.000000000,,,,,-42.08000004E-3,-2.0000000,
,,,-42.03999788E-3,82.000000000,,,,,-42.03999788E-3,-4.00000000,
,,,-41.99999943E-3,82.000000000,,,,,-41.99999943E-3,-2.0000000,
,,,-41.95999727E-3,78.000000000,,,,,-41.95999727E-3,-4.00000000,
,,,-41.91999882E-3,74.000000000,,,,,-41.91999882E-3,-4.00000000,
,,,-41.88000038E-3,70.000000000,,,,,-41.88000038E-3,-2.0000000,
,,,-41.83999822E-3,68.000000000,,,,,-41.83999822E-3,-4.00000000,
,,,-41.79999977E-3,64.000000000,,,,,-41.79999977E-3,-2.0000000,
,,,-41.75999761E-3,62.000000000,,,,,-41.75999761E-3,-4.00000000,
,,,-41.71999916E-3,60.000000000,,,,,-41.71999916E-3,-4.00000000,
,,,-41.68000072E-3,58.000000000,,,,,-41.68000072E-3,-4.00000000,
,,,-41.63999856E-3,54.00000000,,,,,-41.63999856E-3,-4.00000000,
,,,-41.60000011E-3,50.00000000,,,,,-41.60000011E-3,-2.0000000,
,,,-41.55999795E-3,48.00000000,,,,,-41.55999795E-3,-4.00000000,
,,,-41.51999950E-3,46.00000000,,,,,-41.51999950E-3,-4.00000000,
,,,-41.47999734E-3,44.00000000,,,,,-41.47999734E-3,-4.00000000,
,,,-41.43999889E-3,42.00000000,,,,,-41.43999889E-3,-4.00000000,
,,,-41.40000045E-3,38.00000000,,,,,-41.40000045E-3,-4.00000000,
,,,-41.35999829E-3,32.00000000,,,,,-41.35999829E-3,-2.0000000,
,,,-41.31999984E-3,28.00000000,,,,,-41.31999984E-3,-4.00000000,
,,,-41.27999768E-3,26.00000000,,,,,-41.27999768E-3,-2.0000000,
,,,-41.23999923E-3,22.00000000,,,,,-41.23999923E-3,-4.00000000,
,,,-41.20000079E-3,18.0000000,,,,,-41.20000079E-3,-4.00000000,
,,,-41.15999863E-3,16.0000000,,,,,-41.15999863E-3,-4.00000000,
,,,-41.12000018E-3,14.0000000,,,,,-41.12000018E-3,-2.0000000,
,,,-41.07999802E-3,12.0000000,,,,,-41.07999802E-3,-4.00000000,
,,,-41.03999957E-3,10.0000000,,,,,-41.03999957E-3,-4.00000000,
,,,-40.99999741E-3,8.000000000,,,,,-40.99999741E-3,-4.00000000,
,,,-40.95999897E-3,6.00000000,,,,,-40.95999897E-3,-4.00000000,
,,,-40.92000052E-3,4.00000000,,,,,-40.92000052E-3,-2.0000000,
,,,-40.87999836E-3,2.0000000,,,,,-40.87999836E-3,-4.00000000,
,,,-40.83999991E-3,0.0,,,,,-40.83999991E-3,0.0,
,,,-40.79999775E-3,0.0,,,,,-40.79999775E-3,2.0000000,
,,,-40.75999931E-3,0.0,,,,,-40.75999931E-3,6.00000000,
,,,-40.71999714E-3,0.0,,,,,-40.71999714E-3,6.00000000,
,,,-40.67999870E-3,0.0,,,,,-40.67999870E-3,10.0000000,
,,,-40.64000025E-3,0.0,,,,,-40.64000025E-3,12.0000000,
,,,-40.59999809E-3,0.0,,,,,-40.59999809E-3,14.0000000,
,,,-40.55999964E-3,0.0,,,,,-40.55999964E-3,18.0000000,
,,,-40.51999748E-3,0.0,,,,,-40.51999748E-3,18.0000000,
,,,-40.47999904E-3,-2.0000000,,,,,-40.47999904E-3,20.0000000,
,,,-40.44000059E-3,0.0,,,,,-40.44000059E-3,24.00000000,
,,,-40.39999843E-3,0.0,,,,,-40.39999843E-3,26.00000000,
,,,-40.35999998E-3,0.0,,,,,-40.35999998E-3,30.00000000,
,,,-40.31999782E-3,0.0,,,,,-40.31999782E-3,32.00000000,
,,,-40.27999938E-3,0.0,,,,,-40.27999938E-3,34.00000000,
,,,-40.23999721E-3,0.0,,,,,-40.23999721E-3,38.00000000,
,,,-40.19999877E-3,0.0,,,,,-40.19999877E-3,40.00000000,
,,,-40.16000032E-3,-2.0000000,,,,,-40.16000032E-3,42.00000000,
,,,-40.11999816E-3,0.0,,,,,-40.11999816E-3,46.00000000,
,,,-40.07999972E-3,0.0,,,,,-40.07999972E-3,48.00000000,
,,,-40.03999755E-3,0.0,,,,,-40.03999755E-3,50.00000000,
,,,-39.99999911E-3,-2.0000000,,,,,-39.99999911E-3,52.00000000,
,,,-39.96000066E-3,0.0,,,,,-39.96000066E-3,54.00000000,
,,,-39.91999850E-3,0.0,,,,,-39.91999850E-3,58.000000000,
,,,-39.88000005E-3,0.0,,,,,-39.88000005E-3,58.000000000,
,,,-39.83999789E-3,0.0,,,,,-39.83999789E-3,58.000000000,
,,,-39.79999945E-3,-2.0000000,,,,,-39.79999945E-3,64.000000000,
,,,-39.75999728E-3,0.0,,,,,-39.75999728E-3,68.000000000,
,,,-39.71999884E-3,-2.0000000,,,,,-39.71999884E-3,72.000000000,
,,,-39.68000039E-3,0.0,,,,,-39.68000039E-3,74.000000000,
,,,-39.63999823E-3,-2.0000000,,,,,-39.63999823E-3,76.000000000,
,,,-39.59999979E-3,0.0,,,,,-39.59999979E-3,78.000000000,
,,,-39.55999762E-3,-2.0000000,,,,,-39.55999762E-3,80.000000000,
,,,-39.51999918E-3,0.0,,,,,-39.51999918E-3,84.000000000,
,,,-39.48000073E-3,0.0,,,,,-39.48000073E-3,88.000000000,
,,,-39.43999857E-3,0.0,,,,,-39.43999857E-3,90.000000000,
,,,-39.40000013E-3,0.0,,,,,-39.40000013E-3,88.000000000,
,,,-39.35999796E-3,0.0,,,,,-39.35999796E-3,92.000000000,
,,,-39.31999952E-3,0.0,,,,,-39.31999952E-3,96.000000000,
,,,-39.27999735E-3,0.0,,,,,-39.27999735E-3,102.0000000,
,,,-39.23999891E-3,0.0,,,,,-39.23999891E-3,104.0000000,
,,,-39.20000046E-3,0.0,,,,,-39.20000046E-3,106.0000000,
,,,-39.15999830E-3,0.0,,,,,-39.15999830E-3,108.0000000,
,,,-39.11999986E-3,-2.0000000,,,,,-39.11999986E-3,108.0000000,
,,,-39.07999769E-3,0.0,,,,,-39.07999769E-3,114.0000000,
,,,-39.03999925E-3,-2.0000000,,,,,-39.03999925E-3,114.0000000,
,,,-39.00000080E-3,-2.0000000,,,,,-39.00000080E-3,118.0000000,
,,,-38.95999864E-3,0.0,,,,,-38.95999864E-3,120.0000000,
,,,-38.92000020E-3,0.0,,,,,-38.92000020E-3,122.0000000,
,,,-38.87999803E-3,0.0,,,,,-38.87999803E-3,124.0000000,
,,,-38.83999959E-3,0.0,,,,,-38.83999959E-3,126.0000000,
,,,-38.79999742E-3,-2.0000000,,,,,-38.79999742E-3,128.0000000,
,,,-38.75999898E-3,0.0,,,,,-38.75999898E-3,130.0000000,
,,,-38.72000054E-3,-2.0000000,,,,,-38.72000054E-3,132.0000000,
,,,-38.67999837E-3,0.0,,,,,-38.67999837E-3,138.0000000,
